<?xml version="1.0" encoding="utf-8" standalone="no"?>
<!DOCTYPE svg PUBLIC "-//W3C//DTD SVG 1.1//EN"
  "http://www.w3.org/Graphics/SVG/1.1/DTD/svg11.dtd">
<!-- Created with matplotlib (https://matplotlib.org/) -->
<svg height="345.6pt" version="1.1" viewBox="0 0 460.8 345.6" width="460.8pt" xmlns="http://www.w3.org/2000/svg" xmlns:xlink="http://www.w3.org/1999/xlink">
 <defs>
  <style type="text/css">
*{stroke-linecap:butt;stroke-linejoin:round;}
  </style>
 </defs>
 <g id="figure_1">
  <g id="patch_1">
   <path d="M 0 345.6 
L 460.8 345.6 
L 460.8 0 
L 0 0 
z
" style="fill:#ffffff;"/>
  </g>
  <g id="axes_1">
   <g id="patch_2">
    <path d="M 57.6 307.584 
L 414.72 307.584 
L 414.72 41.472 
L 57.6 41.472 
z
" style="fill:#ffffff;"/>
   </g>
   <g id="patch_3">
    <path clip-path="url(#pdec9f7a2d4)" d="M 73.832727 63.035662 
L 75.968612 63.035662 
L 75.968612 63.035662 
L 73.832727 63.035662 
z
"/>
   </g>
   <g id="patch_4">
    <path clip-path="url(#pdec9f7a2d4)" d="M 110.142775 63.035662 
L 112.27866 63.035662 
L 112.27866 62.584703 
L 110.142775 62.584703 
z
"/>
   </g>
   <g id="patch_5">
    <path clip-path="url(#pdec9f7a2d4)" d="M 146.452823 63.035662 
L 148.588708 63.035662 
L 148.588708 60.663907 
L 146.452823 60.663907 
z
"/>
   </g>
   <g id="patch_6">
    <path clip-path="url(#pdec9f7a2d4)" d="M 182.762871 63.035662 
L 184.898756 63.035662 
L 184.898756 57.566229 
L 182.762871 57.566229 
z
"/>
   </g>
   <g id="patch_7">
    <path clip-path="url(#pdec9f7a2d4)" d="M 219.072919 63.035662 
L 221.208804 63.035662 
L 221.208804 55.349735 
L 219.072919 55.349735 
z
"/>
   </g>
   <g id="patch_8">
    <path clip-path="url(#pdec9f7a2d4)" d="M 255.382967 63.035662 
L 257.518852 63.035662 
L 257.518852 53.568 
L 255.382967 53.568 
z
"/>
   </g>
   <g id="patch_9">
    <path clip-path="url(#pdec9f7a2d4)" d="M 291.693014 63.035662 
L 293.8289 63.035662 
L 293.8289 54.145984 
L 291.693014 54.145984 
z
"/>
   </g>
   <g id="patch_10">
    <path clip-path="url(#pdec9f7a2d4)" d="M 328.003062 63.035662 
L 330.138947 63.035662 
L 330.138947 57.41177 
L 328.003062 57.41177 
z
"/>
   </g>
   <g id="patch_11">
    <path clip-path="url(#pdec9f7a2d4)" d="M 364.31311 63.035662 
L 366.448995 63.035662 
L 366.448995 80.051996 
L 364.31311 80.051996 
z
"/>
   </g>
   <g id="patch_12">
    <path clip-path="url(#pdec9f7a2d4)" d="M 75.968612 63.035662 
L 78.104498 63.035662 
L 78.104498 63.035662 
L 75.968612 63.035662 
z
" style="fill:#ffff00;"/>
   </g>
   <g id="patch_13">
    <path clip-path="url(#pdec9f7a2d4)" d="M 112.27866 63.035662 
L 114.414545 63.035662 
L 114.414545 63.035662 
L 112.27866 63.035662 
z
" style="fill:#ffff00;"/>
   </g>
   <g id="patch_14">
    <path clip-path="url(#pdec9f7a2d4)" d="M 148.588708 63.035662 
L 150.724593 63.035662 
L 150.724593 63.035662 
L 148.588708 63.035662 
z
" style="fill:#ffff00;"/>
   </g>
   <g id="patch_15">
    <path clip-path="url(#pdec9f7a2d4)" d="M 184.898756 63.035662 
L 187.034641 63.035662 
L 187.034641 63.035662 
L 184.898756 63.035662 
z
" style="fill:#ffff00;"/>
   </g>
   <g id="patch_16">
    <path clip-path="url(#pdec9f7a2d4)" d="M 221.208804 63.035662 
L 223.344689 63.035662 
L 223.344689 63.035662 
L 221.208804 63.035662 
z
" style="fill:#ffff00;"/>
   </g>
   <g id="patch_17">
    <path clip-path="url(#pdec9f7a2d4)" d="M 257.518852 63.035662 
L 259.654737 63.035662 
L 259.654737 63.035662 
L 257.518852 63.035662 
z
" style="fill:#ffff00;"/>
   </g>
   <g id="patch_18">
    <path clip-path="url(#pdec9f7a2d4)" d="M 293.8289 63.035662 
L 295.964785 63.035662 
L 295.964785 63.035662 
L 293.8289 63.035662 
z
" style="fill:#ffff00;"/>
   </g>
   <g id="patch_19">
    <path clip-path="url(#pdec9f7a2d4)" d="M 330.138947 63.035662 
L 332.274833 63.035662 
L 332.274833 63.035662 
L 330.138947 63.035662 
z
" style="fill:#ffff00;"/>
   </g>
   <g id="patch_20">
    <path clip-path="url(#pdec9f7a2d4)" d="M 366.448995 63.035662 
L 368.58488 63.035662 
L 368.58488 63.035662 
L 366.448995 63.035662 
z
" style="fill:#ffff00;"/>
   </g>
   <g id="patch_21">
    <path clip-path="url(#pdec9f7a2d4)" d="M 78.104498 63.035662 
L 80.240383 63.035662 
L 80.240383 159.911213 
L 78.104498 159.911213 
z
" style="fill:#8b008b;"/>
   </g>
   <g id="patch_22">
    <path clip-path="url(#pdec9f7a2d4)" d="M 114.414545 63.035662 
L 116.550431 63.035662 
L 116.550431 156.634034 
L 114.414545 156.634034 
z
" style="fill:#8b008b;"/>
   </g>
   <g id="patch_23">
    <path clip-path="url(#pdec9f7a2d4)" d="M 150.724593 63.035662 
L 152.860478 63.035662 
L 152.860478 143.913534 
L 150.724593 143.913534 
z
" style="fill:#8b008b;"/>
   </g>
   <g id="patch_24">
    <path clip-path="url(#pdec9f7a2d4)" d="M 187.034641 63.035662 
L 189.170526 63.035662 
L 189.170526 122.933927 
L 187.034641 122.933927 
z
" style="fill:#8b008b;"/>
   </g>
   <g id="patch_25">
    <path clip-path="url(#pdec9f7a2d4)" d="M 223.344689 63.035662 
L 225.480574 63.035662 
L 225.480574 109.505516 
L 223.344689 109.505516 
z
" style="fill:#8b008b;"/>
   </g>
   <g id="patch_26">
    <path clip-path="url(#pdec9f7a2d4)" d="M 259.654737 63.035662 
L 261.790622 63.035662 
L 261.790622 94.634208 
L 259.654737 94.634208 
z
" style="fill:#8b008b;"/>
   </g>
   <g id="patch_27">
    <path clip-path="url(#pdec9f7a2d4)" d="M 295.964785 63.035662 
L 298.10067 63.035662 
L 298.10067 91.054663 
L 295.964785 91.054663 
z
" style="fill:#8b008b;"/>
   </g>
   <g id="patch_28">
    <path clip-path="url(#pdec9f7a2d4)" d="M 332.274833 63.035662 
L 334.410718 63.035662 
L 334.410718 87.988405 
L 332.274833 87.988405 
z
" style="fill:#8b008b;"/>
   </g>
   <g id="patch_29">
    <path clip-path="url(#pdec9f7a2d4)" d="M 368.58488 63.035662 
L 370.720766 63.035662 
L 370.720766 93.911028 
L 368.58488 93.911028 
z
" style="fill:#8b008b;"/>
   </g>
   <g id="patch_30">
    <path clip-path="url(#pdec9f7a2d4)" d="M 80.240383 63.035662 
L 82.376268 63.035662 
L 82.376268 63.035662 
L 80.240383 63.035662 
z
" style="fill:#800080;"/>
   </g>
   <g id="patch_31">
    <path clip-path="url(#pdec9f7a2d4)" d="M 116.550431 63.035662 
L 118.686316 63.035662 
L 118.686316 63.035662 
L 116.550431 63.035662 
z
" style="fill:#800080;"/>
   </g>
   <g id="patch_32">
    <path clip-path="url(#pdec9f7a2d4)" d="M 152.860478 63.035662 
L 154.996364 63.035662 
L 154.996364 63.035662 
L 152.860478 63.035662 
z
" style="fill:#800080;"/>
   </g>
   <g id="patch_33">
    <path clip-path="url(#pdec9f7a2d4)" d="M 189.170526 63.035662 
L 191.306411 63.035662 
L 191.306411 63.035662 
L 189.170526 63.035662 
z
" style="fill:#800080;"/>
   </g>
   <g id="patch_34">
    <path clip-path="url(#pdec9f7a2d4)" d="M 225.480574 63.035662 
L 227.616459 63.035662 
L 227.616459 63.035662 
L 225.480574 63.035662 
z
" style="fill:#800080;"/>
   </g>
   <g id="patch_35">
    <path clip-path="url(#pdec9f7a2d4)" d="M 261.790622 63.035662 
L 263.926507 63.035662 
L 263.926507 63.035662 
L 261.790622 63.035662 
z
" style="fill:#800080;"/>
   </g>
   <g id="patch_36">
    <path clip-path="url(#pdec9f7a2d4)" d="M 298.10067 63.035662 
L 300.236555 63.035662 
L 300.236555 63.035662 
L 298.10067 63.035662 
z
" style="fill:#800080;"/>
   </g>
   <g id="patch_37">
    <path clip-path="url(#pdec9f7a2d4)" d="M 334.410718 63.035662 
L 336.546603 63.035662 
L 336.546603 63.035662 
L 334.410718 63.035662 
z
" style="fill:#800080;"/>
   </g>
   <g id="patch_38">
    <path clip-path="url(#pdec9f7a2d4)" d="M 370.720766 63.035662 
L 372.856651 63.035662 
L 372.856651 63.035662 
L 370.720766 63.035662 
z
" style="fill:#800080;"/>
   </g>
   <g id="patch_39">
    <path clip-path="url(#pdec9f7a2d4)" d="M 82.376268 63.035662 
L 84.512153 63.035662 
L 84.512153 63.035662 
L 82.376268 63.035662 
z
" style="fill:#add8e6;"/>
   </g>
   <g id="patch_40">
    <path clip-path="url(#pdec9f7a2d4)" d="M 118.686316 63.035662 
L 120.822201 63.035662 
L 120.822201 63.035662 
L 118.686316 63.035662 
z
" style="fill:#add8e6;"/>
   </g>
   <g id="patch_41">
    <path clip-path="url(#pdec9f7a2d4)" d="M 154.996364 63.035662 
L 157.132249 63.035662 
L 157.132249 63.035662 
L 154.996364 63.035662 
z
" style="fill:#add8e6;"/>
   </g>
   <g id="patch_42">
    <path clip-path="url(#pdec9f7a2d4)" d="M 191.306411 63.035662 
L 193.442297 63.035662 
L 193.442297 63.035662 
L 191.306411 63.035662 
z
" style="fill:#add8e6;"/>
   </g>
   <g id="patch_43">
    <path clip-path="url(#pdec9f7a2d4)" d="M 227.616459 63.035662 
L 229.752344 63.035662 
L 229.752344 63.035662 
L 227.616459 63.035662 
z
" style="fill:#add8e6;"/>
   </g>
   <g id="patch_44">
    <path clip-path="url(#pdec9f7a2d4)" d="M 263.926507 63.035662 
L 266.062392 63.035662 
L 266.062392 63.035662 
L 263.926507 63.035662 
z
" style="fill:#add8e6;"/>
   </g>
   <g id="patch_45">
    <path clip-path="url(#pdec9f7a2d4)" d="M 300.236555 63.035662 
L 302.37244 63.035662 
L 302.37244 63.035662 
L 300.236555 63.035662 
z
" style="fill:#add8e6;"/>
   </g>
   <g id="patch_46">
    <path clip-path="url(#pdec9f7a2d4)" d="M 336.546603 63.035662 
L 338.682488 63.035662 
L 338.682488 63.035662 
L 336.546603 63.035662 
z
" style="fill:#add8e6;"/>
   </g>
   <g id="patch_47">
    <path clip-path="url(#pdec9f7a2d4)" d="M 372.856651 63.035662 
L 374.992536 63.035662 
L 374.992536 63.035662 
L 372.856651 63.035662 
z
" style="fill:#add8e6;"/>
   </g>
   <g id="patch_48">
    <path clip-path="url(#pdec9f7a2d4)" d="M 84.512153 63.035662 
L 86.648038 63.035662 
L 86.648038 110.954877 
L 84.512153 110.954877 
z
" style="fill:#ff0000;"/>
   </g>
   <g id="patch_49">
    <path clip-path="url(#pdec9f7a2d4)" d="M 120.822201 63.035662 
L 122.958086 63.035662 
L 122.958086 108.143999 
L 120.822201 108.143999 
z
" style="fill:#ff0000;"/>
   </g>
   <g id="patch_50">
    <path clip-path="url(#pdec9f7a2d4)" d="M 157.132249 63.035662 
L 159.268134 63.035662 
L 159.268134 65.191906 
L 157.132249 65.191906 
z
" style="fill:#ff0000;"/>
   </g>
   <g id="patch_51">
    <path clip-path="url(#pdec9f7a2d4)" d="M 193.442297 63.035662 
L 195.578182 63.035662 
L 195.578182 57.566229 
L 193.442297 57.566229 
z
" style="fill:#ff0000;"/>
   </g>
   <g id="patch_52">
    <path clip-path="url(#pdec9f7a2d4)" d="M 229.752344 63.035662 
L 231.88823 63.035662 
L 231.88823 57.803665 
L 229.752344 57.803665 
z
" style="fill:#ff0000;"/>
   </g>
   <g id="patch_53">
    <path clip-path="url(#pdec9f7a2d4)" d="M 266.062392 63.035662 
L 268.198278 63.035662 
L 268.198278 57.156124 
L 266.062392 57.156124 
z
" style="fill:#ff0000;"/>
   </g>
   <g id="patch_54">
    <path clip-path="url(#pdec9f7a2d4)" d="M 302.37244 63.035662 
L 304.508325 63.035662 
L 304.508325 58.44706 
L 302.37244 58.44706 
z
" style="fill:#ff0000;"/>
   </g>
   <g id="patch_55">
    <path clip-path="url(#pdec9f7a2d4)" d="M 338.682488 63.035662 
L 340.818373 63.035662 
L 340.818373 62.359602 
L 338.682488 62.359602 
z
" style="fill:#ff0000;"/>
   </g>
   <g id="patch_56">
    <path clip-path="url(#pdec9f7a2d4)" d="M 374.992536 63.035662 
L 377.128421 63.035662 
L 377.128421 86.136319 
L 374.992536 86.136319 
z
" style="fill:#ff0000;"/>
   </g>
   <g id="patch_57">
    <path clip-path="url(#pdec9f7a2d4)" d="M 86.648038 63.035662 
L 88.783923 63.035662 
L 88.783923 109.965297 
L 86.648038 109.965297 
z
" style="fill:#ff0000;"/>
   </g>
   <g id="patch_58">
    <path clip-path="url(#pdec9f7a2d4)" d="M 122.958086 63.035662 
L 125.093971 63.035662 
L 125.093971 67.291404 
L 122.958086 67.291404 
z
" style="fill:#ff0000;"/>
   </g>
   <g id="patch_59">
    <path clip-path="url(#pdec9f7a2d4)" d="M 159.268134 63.035662 
L 161.404019 63.035662 
L 161.404019 65.191906 
L 159.268134 65.191906 
z
" style="fill:#ff0000;"/>
   </g>
   <g id="patch_60">
    <path clip-path="url(#pdec9f7a2d4)" d="M 195.578182 63.035662 
L 197.714067 63.035662 
L 197.714067 57.566229 
L 195.578182 57.566229 
z
" style="fill:#ff0000;"/>
   </g>
   <g id="patch_61">
    <path clip-path="url(#pdec9f7a2d4)" d="M 231.88823 63.035662 
L 234.024115 63.035662 
L 234.024115 58.797415 
L 231.88823 58.797415 
z
" style="fill:#ff0000;"/>
   </g>
   <g id="patch_62">
    <path clip-path="url(#pdec9f7a2d4)" d="M 268.198278 63.035662 
L 270.334163 63.035662 
L 270.334163 70.43927 
L 268.198278 70.43927 
z
" style="fill:#ff0000;"/>
   </g>
   <g id="patch_63">
    <path clip-path="url(#pdec9f7a2d4)" d="M 304.508325 63.035662 
L 306.644211 63.035662 
L 306.644211 69.393993 
L 304.508325 69.393993 
z
" style="fill:#ff0000;"/>
   </g>
   <g id="patch_64">
    <path clip-path="url(#pdec9f7a2d4)" d="M 340.818373 63.035662 
L 342.954258 63.035662 
L 342.954258 70.020049 
L 340.818373 70.020049 
z
" style="fill:#ff0000;"/>
   </g>
   <g id="patch_65">
    <path clip-path="url(#pdec9f7a2d4)" d="M 377.128421 63.035662 
L 379.264306 63.035662 
L 379.264306 90.883777 
L 377.128421 90.883777 
z
" style="fill:#ff0000;"/>
   </g>
   <g id="patch_66">
    <path clip-path="url(#pdec9f7a2d4)" d="M 88.783923 63.035662 
L 90.919809 63.035662 
L 90.919809 109.965297 
L 88.783923 109.965297 
z
" style="fill:#ff0000;"/>
   </g>
   <g id="patch_67">
    <path clip-path="url(#pdec9f7a2d4)" d="M 125.093971 63.035662 
L 127.229856 63.035662 
L 127.229856 108.143999 
L 125.093971 108.143999 
z
" style="fill:#ff0000;"/>
   </g>
   <g id="patch_68">
    <path clip-path="url(#pdec9f7a2d4)" d="M 161.404019 63.035662 
L 163.539904 63.035662 
L 163.539904 65.617828 
L 161.404019 65.617828 
z
" style="fill:#ff0000;"/>
   </g>
   <g id="patch_69">
    <path clip-path="url(#pdec9f7a2d4)" d="M 197.714067 63.035662 
L 199.849952 63.035662 
L 199.849952 62.184837 
L 197.714067 62.184837 
z
" style="fill:#ff0000;"/>
   </g>
   <g id="patch_70">
    <path clip-path="url(#pdec9f7a2d4)" d="M 234.024115 63.035662 
L 236.16 63.035662 
L 236.16 65.137783 
L 234.024115 65.137783 
z
" style="fill:#ff0000;"/>
   </g>
   <g id="patch_71">
    <path clip-path="url(#pdec9f7a2d4)" d="M 270.334163 63.035662 
L 272.470048 63.035662 
L 272.470048 72.528989 
L 270.334163 72.528989 
z
" style="fill:#ff0000;"/>
   </g>
   <g id="patch_72">
    <path clip-path="url(#pdec9f7a2d4)" d="M 306.644211 63.035662 
L 308.780096 63.035662 
L 308.780096 74.85371 
L 306.644211 74.85371 
z
" style="fill:#ff0000;"/>
   </g>
   <g id="patch_73">
    <path clip-path="url(#pdec9f7a2d4)" d="M 342.954258 63.035662 
L 345.090144 63.035662 
L 345.090144 77.826736 
L 342.954258 77.826736 
z
" style="fill:#ff0000;"/>
   </g>
   <g id="patch_74">
    <path clip-path="url(#pdec9f7a2d4)" d="M 379.264306 63.035662 
L 381.400191 63.035662 
L 381.400191 98.168589 
L 379.264306 98.168589 
z
" style="fill:#ff0000;"/>
   </g>
   <g id="patch_75">
    <path clip-path="url(#pdec9f7a2d4)" d="M 90.919809 63.035662 
L 93.055694 63.035662 
L 93.055694 159.911213 
L 90.919809 159.911213 
z
" style="fill:#ff0000;"/>
   </g>
   <g id="patch_76">
    <path clip-path="url(#pdec9f7a2d4)" d="M 127.229856 63.035662 
L 129.365742 63.035662 
L 129.365742 156.634034 
L 127.229856 156.634034 
z
" style="fill:#ff0000;"/>
   </g>
   <g id="patch_77">
    <path clip-path="url(#pdec9f7a2d4)" d="M 163.539904 63.035662 
L 165.675789 63.035662 
L 165.675789 143.913534 
L 163.539904 143.913534 
z
" style="fill:#ff0000;"/>
   </g>
   <g id="patch_78">
    <path clip-path="url(#pdec9f7a2d4)" d="M 199.849952 63.035662 
L 201.985837 63.035662 
L 201.985837 122.933927 
L 199.849952 122.933927 
z
" style="fill:#ff0000;"/>
   </g>
   <g id="patch_79">
    <path clip-path="url(#pdec9f7a2d4)" d="M 236.16 63.035662 
L 238.295885 63.035662 
L 238.295885 109.505516 
L 236.16 109.505516 
z
" style="fill:#ff0000;"/>
   </g>
   <g id="patch_80">
    <path clip-path="url(#pdec9f7a2d4)" d="M 272.470048 63.035662 
L 274.605933 63.035662 
L 274.605933 94.634208 
L 272.470048 94.634208 
z
" style="fill:#ff0000;"/>
   </g>
   <g id="patch_81">
    <path clip-path="url(#pdec9f7a2d4)" d="M 308.780096 63.035662 
L 310.915981 63.035662 
L 310.915981 91.186536 
L 308.780096 91.186536 
z
" style="fill:#ff0000;"/>
   </g>
   <g id="patch_82">
    <path clip-path="url(#pdec9f7a2d4)" d="M 345.090144 63.035662 
L 347.226029 63.035662 
L 347.226029 88.110321 
L 345.090144 88.110321 
z
" style="fill:#ff0000;"/>
   </g>
   <g id="patch_83">
    <path clip-path="url(#pdec9f7a2d4)" d="M 381.400191 63.035662 
L 383.536077 63.035662 
L 383.536077 98.827921 
L 381.400191 98.827921 
z
" style="fill:#ff0000;"/>
   </g>
   <g id="patch_84">
    <path clip-path="url(#pdec9f7a2d4)" d="M 93.055694 63.035662 
L 95.191579 63.035662 
L 95.191579 109.965297 
L 93.055694 109.965297 
z
" style="fill:#0000ff;"/>
   </g>
   <g id="patch_85">
    <path clip-path="url(#pdec9f7a2d4)" d="M 129.365742 63.035662 
L 131.501627 63.035662 
L 131.501627 67.276074 
L 129.365742 67.276074 
z
" style="fill:#0000ff;"/>
   </g>
   <g id="patch_86">
    <path clip-path="url(#pdec9f7a2d4)" d="M 165.675789 63.035662 
L 167.811675 63.035662 
L 167.811675 65.476026 
L 165.675789 65.476026 
z
" style="fill:#0000ff;"/>
   </g>
   <g id="patch_87">
    <path clip-path="url(#pdec9f7a2d4)" d="M 201.985837 63.035662 
L 204.121722 63.035662 
L 204.121722 57.566229 
L 201.985837 57.566229 
z
" style="fill:#0000ff;"/>
   </g>
   <g id="patch_88">
    <path clip-path="url(#pdec9f7a2d4)" d="M 238.295885 63.035662 
L 240.43177 63.035662 
L 240.43177 57.85167 
L 238.295885 57.85167 
z
" style="fill:#0000ff;"/>
   </g>
   <g id="patch_89">
    <path clip-path="url(#pdec9f7a2d4)" d="M 274.605933 63.035662 
L 276.741818 63.035662 
L 276.741818 72.974531 
L 274.605933 72.974531 
z
" style="fill:#0000ff;"/>
   </g>
   <g id="patch_90">
    <path clip-path="url(#pdec9f7a2d4)" d="M 310.915981 63.035662 
L 313.051866 63.035662 
L 313.051866 73.928331 
L 310.915981 73.928331 
z
" style="fill:#0000ff;"/>
   </g>
   <g id="patch_91">
    <path clip-path="url(#pdec9f7a2d4)" d="M 347.226029 63.035662 
L 349.361914 63.035662 
L 349.361914 74.224629 
L 347.226029 74.224629 
z
" style="fill:#0000ff;"/>
   </g>
   <g id="patch_92">
    <path clip-path="url(#pdec9f7a2d4)" d="M 383.536077 63.035662 
L 385.671962 63.035662 
L 385.671962 91.620783 
L 383.536077 91.620783 
z
" style="fill:#0000ff;"/>
   </g>
   <g id="patch_93">
    <path clip-path="url(#pdec9f7a2d4)" d="M 95.191579 63.035662 
L 97.327464 63.035662 
L 97.327464 109.965297 
L 95.191579 109.965297 
z
" style="fill:#0000ff;"/>
   </g>
   <g id="patch_94">
    <path clip-path="url(#pdec9f7a2d4)" d="M 131.501627 63.035662 
L 133.637512 63.035662 
L 133.637512 67.276074 
L 131.501627 67.276074 
z
" style="fill:#0000ff;"/>
   </g>
   <g id="patch_95">
    <path clip-path="url(#pdec9f7a2d4)" d="M 167.811675 63.035662 
L 169.94756 63.035662 
L 169.94756 65.476026 
L 167.811675 65.476026 
z
" style="fill:#0000ff;"/>
   </g>
   <g id="patch_96">
    <path clip-path="url(#pdec9f7a2d4)" d="M 204.121722 63.035662 
L 206.257608 63.035662 
L 206.257608 57.566229 
L 204.121722 57.566229 
z
" style="fill:#0000ff;"/>
   </g>
   <g id="patch_97">
    <path clip-path="url(#pdec9f7a2d4)" d="M 240.43177 63.035662 
L 242.567656 63.035662 
L 242.567656 59.391215 
L 240.43177 59.391215 
z
" style="fill:#0000ff;"/>
   </g>
   <g id="patch_98">
    <path clip-path="url(#pdec9f7a2d4)" d="M 276.741818 63.035662 
L 278.877703 63.035662 
L 278.877703 74.628502 
L 276.741818 74.628502 
z
" style="fill:#0000ff;"/>
   </g>
   <g id="patch_99">
    <path clip-path="url(#pdec9f7a2d4)" d="M 313.051866 63.035662 
L 315.187751 63.035662 
L 315.187751 75.694842 
L 313.051866 75.694842 
z
" style="fill:#0000ff;"/>
   </g>
   <g id="patch_100">
    <path clip-path="url(#pdec9f7a2d4)" d="M 349.361914 63.035662 
L 351.497799 63.035662 
L 351.497799 78.385782 
L 349.361914 78.385782 
z
" style="fill:#0000ff;"/>
   </g>
   <g id="patch_101">
    <path clip-path="url(#pdec9f7a2d4)" d="M 385.671962 63.035662 
L 387.807847 63.035662 
L 387.807847 96.34298 
L 385.671962 96.34298 
z
" style="fill:#0000ff;"/>
   </g>
   <g id="patch_102">
    <path clip-path="url(#pdec9f7a2d4)" d="M 97.327464 63.035662 
L 99.463349 63.035662 
L 99.463349 109.965297 
L 97.327464 109.965297 
z
" style="fill:#0000ff;"/>
   </g>
   <g id="patch_103">
    <path clip-path="url(#pdec9f7a2d4)" d="M 133.637512 63.035662 
L 135.773397 63.035662 
L 135.773397 108.143999 
L 133.637512 108.143999 
z
" style="fill:#0000ff;"/>
   </g>
   <g id="patch_104">
    <path clip-path="url(#pdec9f7a2d4)" d="M 169.94756 63.035662 
L 172.083445 63.035662 
L 172.083445 65.617828 
L 169.94756 65.617828 
z
" style="fill:#0000ff;"/>
   </g>
   <g id="patch_105">
    <path clip-path="url(#pdec9f7a2d4)" d="M 206.257608 63.035662 
L 208.393493 63.035662 
L 208.393493 62.184837 
L 206.257608 62.184837 
z
" style="fill:#0000ff;"/>
   </g>
   <g id="patch_106">
    <path clip-path="url(#pdec9f7a2d4)" d="M 242.567656 63.035662 
L 244.703541 63.035662 
L 244.703541 105.587627 
L 242.567656 105.587627 
z
" style="fill:#0000ff;"/>
   </g>
   <g id="patch_107">
    <path clip-path="url(#pdec9f7a2d4)" d="M 278.877703 63.035662 
L 281.013589 63.035662 
L 281.013589 94.263896 
L 278.877703 94.263896 
z
" style="fill:#0000ff;"/>
   </g>
   <g id="patch_108">
    <path clip-path="url(#pdec9f7a2d4)" d="M 315.187751 63.035662 
L 317.323636 63.035662 
L 317.323636 77.238484 
L 315.187751 77.238484 
z
" style="fill:#0000ff;"/>
   </g>
   <g id="patch_109">
    <path clip-path="url(#pdec9f7a2d4)" d="M 351.497799 63.035662 
L 353.633684 63.035662 
L 353.633684 80.557992 
L 351.497799 80.557992 
z
" style="fill:#0000ff;"/>
   </g>
   <g id="patch_110">
    <path clip-path="url(#pdec9f7a2d4)" d="M 387.807847 63.035662 
L 389.943732 63.035662 
L 389.943732 99.758675 
L 387.807847 99.758675 
z
" style="fill:#0000ff;"/>
   </g>
   <g id="patch_111">
    <path clip-path="url(#pdec9f7a2d4)" d="M 99.463349 63.035662 
L 101.599234 63.035662 
L 101.599234 159.911213 
L 99.463349 159.911213 
z
" style="fill:#0000ff;"/>
   </g>
   <g id="patch_112">
    <path clip-path="url(#pdec9f7a2d4)" d="M 135.773397 63.035662 
L 137.909282 63.035662 
L 137.909282 156.634034 
L 135.773397 156.634034 
z
" style="fill:#0000ff;"/>
   </g>
   <g id="patch_113">
    <path clip-path="url(#pdec9f7a2d4)" d="M 172.083445 63.035662 
L 174.21933 63.035662 
L 174.21933 143.913534 
L 172.083445 143.913534 
z
" style="fill:#0000ff;"/>
   </g>
   <g id="patch_114">
    <path clip-path="url(#pdec9f7a2d4)" d="M 208.393493 63.035662 
L 210.529378 63.035662 
L 210.529378 122.933927 
L 208.393493 122.933927 
z
" style="fill:#0000ff;"/>
   </g>
   <g id="patch_115">
    <path clip-path="url(#pdec9f7a2d4)" d="M 244.703541 63.035662 
L 246.839426 63.035662 
L 246.839426 109.505516 
L 244.703541 109.505516 
z
" style="fill:#0000ff;"/>
   </g>
   <g id="patch_116">
    <path clip-path="url(#pdec9f7a2d4)" d="M 281.013589 63.035662 
L 283.149474 63.035662 
L 283.149474 94.634208 
L 281.013589 94.634208 
z
" style="fill:#0000ff;"/>
   </g>
   <g id="patch_117">
    <path clip-path="url(#pdec9f7a2d4)" d="M 317.323636 63.035662 
L 319.459522 63.035662 
L 319.459522 91.186536 
L 317.323636 91.186536 
z
" style="fill:#0000ff;"/>
   </g>
   <g id="patch_118">
    <path clip-path="url(#pdec9f7a2d4)" d="M 353.633684 63.035662 
L 355.769569 63.035662 
L 355.769569 88.110321 
L 353.633684 88.110321 
z
" style="fill:#0000ff;"/>
   </g>
   <g id="patch_119">
    <path clip-path="url(#pdec9f7a2d4)" d="M 389.943732 63.035662 
L 392.079617 63.035662 
L 392.079617 98.827921 
L 389.943732 98.827921 
z
" style="fill:#0000ff;"/>
   </g>
   <g id="patch_120">
    <path clip-path="url(#pdec9f7a2d4)" d="M 101.599234 63.035662 
L 103.73512 63.035662 
L 103.73512 109.714588 
L 101.599234 109.714588 
z
" style="fill:#ffc0cb;"/>
   </g>
   <g id="patch_121">
    <path clip-path="url(#pdec9f7a2d4)" d="M 137.909282 63.035662 
L 140.045167 63.035662 
L 140.045167 107.050841 
L 137.909282 107.050841 
z
" style="fill:#ffc0cb;"/>
   </g>
   <g id="patch_122">
    <path clip-path="url(#pdec9f7a2d4)" d="M 174.21933 63.035662 
L 176.355215 63.035662 
L 176.355215 97.452705 
L 174.21933 97.452705 
z
" style="fill:#ffc0cb;"/>
   </g>
   <g id="patch_123">
    <path clip-path="url(#pdec9f7a2d4)" d="M 210.529378 63.035662 
L 212.665263 63.035662 
L 212.665263 87.792425 
L 210.529378 87.792425 
z
" style="fill:#ffc0cb;"/>
   </g>
   <g id="patch_124">
    <path clip-path="url(#pdec9f7a2d4)" d="M 246.839426 63.035662 
L 248.975311 63.035662 
L 248.975311 79.304224 
L 246.839426 79.304224 
z
" style="fill:#ffc0cb;"/>
   </g>
   <g id="patch_125">
    <path clip-path="url(#pdec9f7a2d4)" d="M 283.149474 63.035662 
L 285.285359 63.035662 
L 285.285359 74.12829 
L 283.149474 74.12829 
z
" style="fill:#ffc0cb;"/>
   </g>
   <g id="patch_126">
    <path clip-path="url(#pdec9f7a2d4)" d="M 319.459522 63.035662 
L 321.595407 63.035662 
L 321.595407 75.672782 
L 319.459522 75.672782 
z
" style="fill:#ffc0cb;"/>
   </g>
   <g id="patch_127">
    <path clip-path="url(#pdec9f7a2d4)" d="M 355.769569 63.035662 
L 357.905455 63.035662 
L 357.905455 76.605475 
L 355.769569 76.605475 
z
" style="fill:#ffc0cb;"/>
   </g>
   <g id="patch_128">
    <path clip-path="url(#pdec9f7a2d4)" d="M 392.079617 63.035662 
L 394.215502 63.035662 
L 394.215502 89.392631 
L 392.079617 89.392631 
z
" style="fill:#ffc0cb;"/>
   </g>
   <g id="patch_129">
    <path clip-path="url(#pdec9f7a2d4)" d="M 103.73512 63.035662 
L 105.871005 63.035662 
L 105.871005 261.175234 
L 103.73512 261.175234 
z
" style="fill:#ffc0cb;"/>
   </g>
   <g id="patch_130">
    <path clip-path="url(#pdec9f7a2d4)" d="M 140.045167 63.035662 
L 142.181053 63.035662 
L 142.181053 252.955188 
L 140.045167 252.955188 
z
" style="fill:#ffc0cb;"/>
   </g>
   <g id="patch_131">
    <path clip-path="url(#pdec9f7a2d4)" d="M 176.355215 63.035662 
L 178.4911 63.035662 
L 178.4911 218.715519 
L 176.355215 218.715519 
z
" style="fill:#ffc0cb;"/>
   </g>
   <g id="patch_132">
    <path clip-path="url(#pdec9f7a2d4)" d="M 212.665263 63.035662 
L 214.801148 63.035662 
L 214.801148 174.276368 
L 212.665263 174.276368 
z
" style="fill:#ffc0cb;"/>
   </g>
   <g id="patch_133">
    <path clip-path="url(#pdec9f7a2d4)" d="M 248.975311 63.035662 
L 251.111196 63.035662 
L 251.111196 140.490889 
L 248.975311 140.490889 
z
" style="fill:#ffc0cb;"/>
   </g>
   <g id="patch_134">
    <path clip-path="url(#pdec9f7a2d4)" d="M 285.285359 63.035662 
L 287.421244 63.035662 
L 287.421244 109.059016 
L 285.285359 109.059016 
z
" style="fill:#ffc0cb;"/>
   </g>
   <g id="patch_135">
    <path clip-path="url(#pdec9f7a2d4)" d="M 321.595407 63.035662 
L 323.731292 63.035662 
L 323.731292 93.825146 
L 321.595407 93.825146 
z
" style="fill:#ffc0cb;"/>
   </g>
   <g id="patch_136">
    <path clip-path="url(#pdec9f7a2d4)" d="M 357.905455 63.035662 
L 360.04134 63.035662 
L 360.04134 80.76242 
L 357.905455 80.76242 
z
" style="fill:#ffc0cb;"/>
   </g>
   <g id="patch_137">
    <path clip-path="url(#pdec9f7a2d4)" d="M 394.215502 63.035662 
L 396.351388 63.035662 
L 396.351388 81.891587 
L 394.215502 81.891587 
z
" style="fill:#ffc0cb;"/>
   </g>
   <g id="patch_138">
    <path clip-path="url(#pdec9f7a2d4)" d="M 105.871005 63.035662 
L 108.00689 63.035662 
L 108.00689 295.488 
L 105.871005 295.488 
z
" style="fill:#ffc0cb;"/>
   </g>
   <g id="patch_139">
    <path clip-path="url(#pdec9f7a2d4)" d="M 142.181053 63.035662 
L 144.316938 63.035662 
L 144.316938 281.509741 
L 142.181053 281.509741 
z
" style="fill:#ffc0cb;"/>
   </g>
   <g id="patch_140">
    <path clip-path="url(#pdec9f7a2d4)" d="M 178.4911 63.035662 
L 180.626986 63.035662 
L 180.626986 242.998525 
L 178.4911 242.998525 
z
" style="fill:#ffc0cb;"/>
   </g>
   <g id="patch_141">
    <path clip-path="url(#pdec9f7a2d4)" d="M 214.801148 63.035662 
L 216.937033 63.035662 
L 216.937033 185.961434 
L 214.801148 185.961434 
z
" style="fill:#ffc0cb;"/>
   </g>
   <g id="patch_142">
    <path clip-path="url(#pdec9f7a2d4)" d="M 251.111196 63.035662 
L 253.247081 63.035662 
L 253.247081 149.125433 
L 251.111196 149.125433 
z
" style="fill:#ffc0cb;"/>
   </g>
   <g id="patch_143">
    <path clip-path="url(#pdec9f7a2d4)" d="M 287.421244 63.035662 
L 289.557129 63.035662 
L 289.557129 114.038746 
L 287.421244 114.038746 
z
" style="fill:#ffc0cb;"/>
   </g>
   <g id="patch_144">
    <path clip-path="url(#pdec9f7a2d4)" d="M 323.731292 63.035662 
L 325.867177 63.035662 
L 325.867177 94.262623 
L 323.731292 94.262623 
z
" style="fill:#ffc0cb;"/>
   </g>
   <g id="patch_145">
    <path clip-path="url(#pdec9f7a2d4)" d="M 360.04134 63.035662 
L 362.177225 63.035662 
L 362.177225 76.121307 
L 360.04134 76.121307 
z
" style="fill:#ffc0cb;"/>
   </g>
   <g id="patch_146">
    <path clip-path="url(#pdec9f7a2d4)" d="M 396.351388 63.035662 
L 398.487273 63.035662 
L 398.487273 70.691703 
L 396.351388 70.691703 
z
" style="fill:#ffc0cb;"/>
   </g>
   <g id="matplotlib.axis_1">
    <g id="xtick_1">
     <g id="line2d_1">
      <defs>
       <path d="M 0 0 
L 0 3.5 
" id="madab534137" style="stroke:#000000;stroke-width:0.8;"/>
      </defs>
      <g>
       <use style="stroke:#000000;stroke-width:0.8;" x="91.987751" xlink:href="#madab534137" y="307.584"/>
      </g>
     </g>
     <g id="text_1">
      <!-- 0.1 -->
      <defs>
       <path d="M 31.78125 66.40625 
Q 24.171875 66.40625 20.328125 58.90625 
Q 16.5 51.421875 16.5 36.375 
Q 16.5 21.390625 20.328125 13.890625 
Q 24.171875 6.390625 31.78125 6.390625 
Q 39.453125 6.390625 43.28125 13.890625 
Q 47.125 21.390625 47.125 36.375 
Q 47.125 51.421875 43.28125 58.90625 
Q 39.453125 66.40625 31.78125 66.40625 
z
M 31.78125 74.21875 
Q 44.046875 74.21875 50.515625 64.515625 
Q 56.984375 54.828125 56.984375 36.375 
Q 56.984375 17.96875 50.515625 8.265625 
Q 44.046875 -1.421875 31.78125 -1.421875 
Q 19.53125 -1.421875 13.0625 8.265625 
Q 6.59375 17.96875 6.59375 36.375 
Q 6.59375 54.828125 13.0625 64.515625 
Q 19.53125 74.21875 31.78125 74.21875 
z
" id="DejaVuSans-48"/>
       <path d="M 10.6875 12.40625 
L 21 12.40625 
L 21 0 
L 10.6875 0 
z
" id="DejaVuSans-46"/>
       <path d="M 12.40625 8.296875 
L 28.515625 8.296875 
L 28.515625 63.921875 
L 10.984375 60.40625 
L 10.984375 69.390625 
L 28.421875 72.90625 
L 38.28125 72.90625 
L 38.28125 8.296875 
L 54.390625 8.296875 
L 54.390625 0 
L 12.40625 0 
z
" id="DejaVuSans-49"/>
      </defs>
      <g transform="translate(84.036189 322.182437)scale(0.1 -0.1)">
       <use xlink:href="#DejaVuSans-48"/>
       <use x="63.623047" xlink:href="#DejaVuSans-46"/>
       <use x="95.410156" xlink:href="#DejaVuSans-49"/>
      </g>
     </g>
    </g>
    <g id="xtick_2">
     <g id="line2d_2">
      <g>
       <use style="stroke:#000000;stroke-width:0.8;" x="128.297799" xlink:href="#madab534137" y="307.584"/>
      </g>
     </g>
     <g id="text_2">
      <!-- 0.2 -->
      <defs>
       <path d="M 19.1875 8.296875 
L 53.609375 8.296875 
L 53.609375 0 
L 7.328125 0 
L 7.328125 8.296875 
Q 12.9375 14.109375 22.625 23.890625 
Q 32.328125 33.6875 34.8125 36.53125 
Q 39.546875 41.84375 41.421875 45.53125 
Q 43.3125 49.21875 43.3125 52.78125 
Q 43.3125 58.59375 39.234375 62.25 
Q 35.15625 65.921875 28.609375 65.921875 
Q 23.96875 65.921875 18.8125 64.3125 
Q 13.671875 62.703125 7.8125 59.421875 
L 7.8125 69.390625 
Q 13.765625 71.78125 18.9375 73 
Q 24.125 74.21875 28.421875 74.21875 
Q 39.75 74.21875 46.484375 68.546875 
Q 53.21875 62.890625 53.21875 53.421875 
Q 53.21875 48.921875 51.53125 44.890625 
Q 49.859375 40.875 45.40625 35.40625 
Q 44.1875 33.984375 37.640625 27.21875 
Q 31.109375 20.453125 19.1875 8.296875 
z
" id="DejaVuSans-50"/>
      </defs>
      <g transform="translate(120.346237 322.182437)scale(0.1 -0.1)">
       <use xlink:href="#DejaVuSans-48"/>
       <use x="63.623047" xlink:href="#DejaVuSans-46"/>
       <use x="95.410156" xlink:href="#DejaVuSans-50"/>
      </g>
     </g>
    </g>
    <g id="xtick_3">
     <g id="line2d_3">
      <g>
       <use style="stroke:#000000;stroke-width:0.8;" x="164.607847" xlink:href="#madab534137" y="307.584"/>
      </g>
     </g>
     <g id="text_3">
      <!-- 0.3 -->
      <defs>
       <path d="M 40.578125 39.3125 
Q 47.65625 37.796875 51.625 33 
Q 55.609375 28.21875 55.609375 21.1875 
Q 55.609375 10.40625 48.1875 4.484375 
Q 40.765625 -1.421875 27.09375 -1.421875 
Q 22.515625 -1.421875 17.65625 -0.515625 
Q 12.796875 0.390625 7.625 2.203125 
L 7.625 11.71875 
Q 11.71875 9.328125 16.59375 8.109375 
Q 21.484375 6.890625 26.8125 6.890625 
Q 36.078125 6.890625 40.9375 10.546875 
Q 45.796875 14.203125 45.796875 21.1875 
Q 45.796875 27.640625 41.28125 31.265625 
Q 36.765625 34.90625 28.71875 34.90625 
L 20.21875 34.90625 
L 20.21875 43.015625 
L 29.109375 43.015625 
Q 36.375 43.015625 40.234375 45.921875 
Q 44.09375 48.828125 44.09375 54.296875 
Q 44.09375 59.90625 40.109375 62.90625 
Q 36.140625 65.921875 28.71875 65.921875 
Q 24.65625 65.921875 20.015625 65.03125 
Q 15.375 64.15625 9.8125 62.3125 
L 9.8125 71.09375 
Q 15.4375 72.65625 20.34375 73.4375 
Q 25.25 74.21875 29.59375 74.21875 
Q 40.828125 74.21875 47.359375 69.109375 
Q 53.90625 64.015625 53.90625 55.328125 
Q 53.90625 49.265625 50.4375 45.09375 
Q 46.96875 40.921875 40.578125 39.3125 
z
" id="DejaVuSans-51"/>
      </defs>
      <g transform="translate(156.656284 322.182437)scale(0.1 -0.1)">
       <use xlink:href="#DejaVuSans-48"/>
       <use x="63.623047" xlink:href="#DejaVuSans-46"/>
       <use x="95.410156" xlink:href="#DejaVuSans-51"/>
      </g>
     </g>
    </g>
    <g id="xtick_4">
     <g id="line2d_4">
      <g>
       <use style="stroke:#000000;stroke-width:0.8;" x="200.917895" xlink:href="#madab534137" y="307.584"/>
      </g>
     </g>
     <g id="text_4">
      <!-- 0.4 -->
      <defs>
       <path d="M 37.796875 64.3125 
L 12.890625 25.390625 
L 37.796875 25.390625 
z
M 35.203125 72.90625 
L 47.609375 72.90625 
L 47.609375 25.390625 
L 58.015625 25.390625 
L 58.015625 17.1875 
L 47.609375 17.1875 
L 47.609375 0 
L 37.796875 0 
L 37.796875 17.1875 
L 4.890625 17.1875 
L 4.890625 26.703125 
z
" id="DejaVuSans-52"/>
      </defs>
      <g transform="translate(192.966332 322.182437)scale(0.1 -0.1)">
       <use xlink:href="#DejaVuSans-48"/>
       <use x="63.623047" xlink:href="#DejaVuSans-46"/>
       <use x="95.410156" xlink:href="#DejaVuSans-52"/>
      </g>
     </g>
    </g>
    <g id="xtick_5">
     <g id="line2d_5">
      <g>
       <use style="stroke:#000000;stroke-width:0.8;" x="237.227943" xlink:href="#madab534137" y="307.584"/>
      </g>
     </g>
     <g id="text_5">
      <!-- 0.5 -->
      <defs>
       <path d="M 10.796875 72.90625 
L 49.515625 72.90625 
L 49.515625 64.59375 
L 19.828125 64.59375 
L 19.828125 46.734375 
Q 21.96875 47.46875 24.109375 47.828125 
Q 26.265625 48.1875 28.421875 48.1875 
Q 40.625 48.1875 47.75 41.5 
Q 54.890625 34.8125 54.890625 23.390625 
Q 54.890625 11.625 47.5625 5.09375 
Q 40.234375 -1.421875 26.90625 -1.421875 
Q 22.3125 -1.421875 17.546875 -0.640625 
Q 12.796875 0.140625 7.71875 1.703125 
L 7.71875 11.625 
Q 12.109375 9.234375 16.796875 8.0625 
Q 21.484375 6.890625 26.703125 6.890625 
Q 35.15625 6.890625 40.078125 11.328125 
Q 45.015625 15.765625 45.015625 23.390625 
Q 45.015625 31 40.078125 35.4375 
Q 35.15625 39.890625 26.703125 39.890625 
Q 22.75 39.890625 18.8125 39.015625 
Q 14.890625 38.140625 10.796875 36.28125 
z
" id="DejaVuSans-53"/>
      </defs>
      <g transform="translate(229.27638 322.182437)scale(0.1 -0.1)">
       <use xlink:href="#DejaVuSans-48"/>
       <use x="63.623047" xlink:href="#DejaVuSans-46"/>
       <use x="95.410156" xlink:href="#DejaVuSans-53"/>
      </g>
     </g>
    </g>
    <g id="xtick_6">
     <g id="line2d_6">
      <g>
       <use style="stroke:#000000;stroke-width:0.8;" x="273.53799" xlink:href="#madab534137" y="307.584"/>
      </g>
     </g>
     <g id="text_6">
      <!-- 0.6 -->
      <defs>
       <path d="M 33.015625 40.375 
Q 26.375 40.375 22.484375 35.828125 
Q 18.609375 31.296875 18.609375 23.390625 
Q 18.609375 15.53125 22.484375 10.953125 
Q 26.375 6.390625 33.015625 6.390625 
Q 39.65625 6.390625 43.53125 10.953125 
Q 47.40625 15.53125 47.40625 23.390625 
Q 47.40625 31.296875 43.53125 35.828125 
Q 39.65625 40.375 33.015625 40.375 
z
M 52.59375 71.296875 
L 52.59375 62.3125 
Q 48.875 64.0625 45.09375 64.984375 
Q 41.3125 65.921875 37.59375 65.921875 
Q 27.828125 65.921875 22.671875 59.328125 
Q 17.53125 52.734375 16.796875 39.40625 
Q 19.671875 43.65625 24.015625 45.921875 
Q 28.375 48.1875 33.59375 48.1875 
Q 44.578125 48.1875 50.953125 41.515625 
Q 57.328125 34.859375 57.328125 23.390625 
Q 57.328125 12.15625 50.6875 5.359375 
Q 44.046875 -1.421875 33.015625 -1.421875 
Q 20.359375 -1.421875 13.671875 8.265625 
Q 6.984375 17.96875 6.984375 36.375 
Q 6.984375 53.65625 15.1875 63.9375 
Q 23.390625 74.21875 37.203125 74.21875 
Q 40.921875 74.21875 44.703125 73.484375 
Q 48.484375 72.75 52.59375 71.296875 
z
" id="DejaVuSans-54"/>
      </defs>
      <g transform="translate(265.586428 322.182437)scale(0.1 -0.1)">
       <use xlink:href="#DejaVuSans-48"/>
       <use x="63.623047" xlink:href="#DejaVuSans-46"/>
       <use x="95.410156" xlink:href="#DejaVuSans-54"/>
      </g>
     </g>
    </g>
    <g id="xtick_7">
     <g id="line2d_7">
      <g>
       <use style="stroke:#000000;stroke-width:0.8;" x="309.848038" xlink:href="#madab534137" y="307.584"/>
      </g>
     </g>
     <g id="text_7">
      <!-- 0.7 -->
      <defs>
       <path d="M 8.203125 72.90625 
L 55.078125 72.90625 
L 55.078125 68.703125 
L 28.609375 0 
L 18.3125 0 
L 43.21875 64.59375 
L 8.203125 64.59375 
z
" id="DejaVuSans-55"/>
      </defs>
      <g transform="translate(301.896476 322.182437)scale(0.1 -0.1)">
       <use xlink:href="#DejaVuSans-48"/>
       <use x="63.623047" xlink:href="#DejaVuSans-46"/>
       <use x="95.410156" xlink:href="#DejaVuSans-55"/>
      </g>
     </g>
    </g>
    <g id="xtick_8">
     <g id="line2d_8">
      <g>
       <use style="stroke:#000000;stroke-width:0.8;" x="346.158086" xlink:href="#madab534137" y="307.584"/>
      </g>
     </g>
     <g id="text_8">
      <!-- 0.8 -->
      <defs>
       <path d="M 31.78125 34.625 
Q 24.75 34.625 20.71875 30.859375 
Q 16.703125 27.09375 16.703125 20.515625 
Q 16.703125 13.921875 20.71875 10.15625 
Q 24.75 6.390625 31.78125 6.390625 
Q 38.8125 6.390625 42.859375 10.171875 
Q 46.921875 13.96875 46.921875 20.515625 
Q 46.921875 27.09375 42.890625 30.859375 
Q 38.875 34.625 31.78125 34.625 
z
M 21.921875 38.8125 
Q 15.578125 40.375 12.03125 44.71875 
Q 8.5 49.078125 8.5 55.328125 
Q 8.5 64.0625 14.71875 69.140625 
Q 20.953125 74.21875 31.78125 74.21875 
Q 42.671875 74.21875 48.875 69.140625 
Q 55.078125 64.0625 55.078125 55.328125 
Q 55.078125 49.078125 51.53125 44.71875 
Q 48 40.375 41.703125 38.8125 
Q 48.828125 37.15625 52.796875 32.3125 
Q 56.78125 27.484375 56.78125 20.515625 
Q 56.78125 9.90625 50.3125 4.234375 
Q 43.84375 -1.421875 31.78125 -1.421875 
Q 19.734375 -1.421875 13.25 4.234375 
Q 6.78125 9.90625 6.78125 20.515625 
Q 6.78125 27.484375 10.78125 32.3125 
Q 14.796875 37.15625 21.921875 38.8125 
z
M 18.3125 54.390625 
Q 18.3125 48.734375 21.84375 45.5625 
Q 25.390625 42.390625 31.78125 42.390625 
Q 38.140625 42.390625 41.71875 45.5625 
Q 45.3125 48.734375 45.3125 54.390625 
Q 45.3125 60.0625 41.71875 63.234375 
Q 38.140625 66.40625 31.78125 66.40625 
Q 25.390625 66.40625 21.84375 63.234375 
Q 18.3125 60.0625 18.3125 54.390625 
z
" id="DejaVuSans-56"/>
      </defs>
      <g transform="translate(338.206524 322.182437)scale(0.1 -0.1)">
       <use xlink:href="#DejaVuSans-48"/>
       <use x="63.623047" xlink:href="#DejaVuSans-46"/>
       <use x="95.410156" xlink:href="#DejaVuSans-56"/>
      </g>
     </g>
    </g>
    <g id="xtick_9">
     <g id="line2d_9">
      <g>
       <use style="stroke:#000000;stroke-width:0.8;" x="382.468134" xlink:href="#madab534137" y="307.584"/>
      </g>
     </g>
     <g id="text_9">
      <!-- 0.9 -->
      <defs>
       <path d="M 10.984375 1.515625 
L 10.984375 10.5 
Q 14.703125 8.734375 18.5 7.8125 
Q 22.3125 6.890625 25.984375 6.890625 
Q 35.75 6.890625 40.890625 13.453125 
Q 46.046875 20.015625 46.78125 33.40625 
Q 43.953125 29.203125 39.59375 26.953125 
Q 35.25 24.703125 29.984375 24.703125 
Q 19.046875 24.703125 12.671875 31.3125 
Q 6.296875 37.9375 6.296875 49.421875 
Q 6.296875 60.640625 12.9375 67.421875 
Q 19.578125 74.21875 30.609375 74.21875 
Q 43.265625 74.21875 49.921875 64.515625 
Q 56.59375 54.828125 56.59375 36.375 
Q 56.59375 19.140625 48.40625 8.859375 
Q 40.234375 -1.421875 26.421875 -1.421875 
Q 22.703125 -1.421875 18.890625 -0.6875 
Q 15.09375 0.046875 10.984375 1.515625 
z
M 30.609375 32.421875 
Q 37.25 32.421875 41.125 36.953125 
Q 45.015625 41.5 45.015625 49.421875 
Q 45.015625 57.28125 41.125 61.84375 
Q 37.25 66.40625 30.609375 66.40625 
Q 23.96875 66.40625 20.09375 61.84375 
Q 16.21875 57.28125 16.21875 49.421875 
Q 16.21875 41.5 20.09375 36.953125 
Q 23.96875 32.421875 30.609375 32.421875 
z
" id="DejaVuSans-57"/>
      </defs>
      <g transform="translate(374.516571 322.182437)scale(0.1 -0.1)">
       <use xlink:href="#DejaVuSans-48"/>
       <use x="63.623047" xlink:href="#DejaVuSans-46"/>
       <use x="95.410156" xlink:href="#DejaVuSans-57"/>
      </g>
     </g>
    </g>
    <g id="text_10">
     <!-- Probability of contact failure -->
     <defs>
      <path d="M 19.671875 64.796875 
L 19.671875 37.40625 
L 32.078125 37.40625 
Q 38.96875 37.40625 42.71875 40.96875 
Q 46.484375 44.53125 46.484375 51.125 
Q 46.484375 57.671875 42.71875 61.234375 
Q 38.96875 64.796875 32.078125 64.796875 
z
M 9.8125 72.90625 
L 32.078125 72.90625 
Q 44.34375 72.90625 50.609375 67.359375 
Q 56.890625 61.8125 56.890625 51.125 
Q 56.890625 40.328125 50.609375 34.8125 
Q 44.34375 29.296875 32.078125 29.296875 
L 19.671875 29.296875 
L 19.671875 0 
L 9.8125 0 
z
" id="DejaVuSans-80"/>
      <path d="M 41.109375 46.296875 
Q 39.59375 47.171875 37.8125 47.578125 
Q 36.03125 48 33.890625 48 
Q 26.265625 48 22.1875 43.046875 
Q 18.109375 38.09375 18.109375 28.8125 
L 18.109375 0 
L 9.078125 0 
L 9.078125 54.6875 
L 18.109375 54.6875 
L 18.109375 46.1875 
Q 20.953125 51.171875 25.484375 53.578125 
Q 30.03125 56 36.53125 56 
Q 37.453125 56 38.578125 55.875 
Q 39.703125 55.765625 41.0625 55.515625 
z
" id="DejaVuSans-114"/>
      <path d="M 30.609375 48.390625 
Q 23.390625 48.390625 19.1875 42.75 
Q 14.984375 37.109375 14.984375 27.296875 
Q 14.984375 17.484375 19.15625 11.84375 
Q 23.34375 6.203125 30.609375 6.203125 
Q 37.796875 6.203125 41.984375 11.859375 
Q 46.1875 17.53125 46.1875 27.296875 
Q 46.1875 37.015625 41.984375 42.703125 
Q 37.796875 48.390625 30.609375 48.390625 
z
M 30.609375 56 
Q 42.328125 56 49.015625 48.375 
Q 55.71875 40.765625 55.71875 27.296875 
Q 55.71875 13.875 49.015625 6.21875 
Q 42.328125 -1.421875 30.609375 -1.421875 
Q 18.84375 -1.421875 12.171875 6.21875 
Q 5.515625 13.875 5.515625 27.296875 
Q 5.515625 40.765625 12.171875 48.375 
Q 18.84375 56 30.609375 56 
z
" id="DejaVuSans-111"/>
      <path d="M 48.6875 27.296875 
Q 48.6875 37.203125 44.609375 42.84375 
Q 40.53125 48.484375 33.40625 48.484375 
Q 26.265625 48.484375 22.1875 42.84375 
Q 18.109375 37.203125 18.109375 27.296875 
Q 18.109375 17.390625 22.1875 11.75 
Q 26.265625 6.109375 33.40625 6.109375 
Q 40.53125 6.109375 44.609375 11.75 
Q 48.6875 17.390625 48.6875 27.296875 
z
M 18.109375 46.390625 
Q 20.953125 51.265625 25.265625 53.625 
Q 29.59375 56 35.59375 56 
Q 45.5625 56 51.78125 48.09375 
Q 58.015625 40.1875 58.015625 27.296875 
Q 58.015625 14.40625 51.78125 6.484375 
Q 45.5625 -1.421875 35.59375 -1.421875 
Q 29.59375 -1.421875 25.265625 0.953125 
Q 20.953125 3.328125 18.109375 8.203125 
L 18.109375 0 
L 9.078125 0 
L 9.078125 75.984375 
L 18.109375 75.984375 
z
" id="DejaVuSans-98"/>
      <path d="M 34.28125 27.484375 
Q 23.390625 27.484375 19.1875 25 
Q 14.984375 22.515625 14.984375 16.5 
Q 14.984375 11.71875 18.140625 8.90625 
Q 21.296875 6.109375 26.703125 6.109375 
Q 34.1875 6.109375 38.703125 11.40625 
Q 43.21875 16.703125 43.21875 25.484375 
L 43.21875 27.484375 
z
M 52.203125 31.203125 
L 52.203125 0 
L 43.21875 0 
L 43.21875 8.296875 
Q 40.140625 3.328125 35.546875 0.953125 
Q 30.953125 -1.421875 24.3125 -1.421875 
Q 15.921875 -1.421875 10.953125 3.296875 
Q 6 8.015625 6 15.921875 
Q 6 25.140625 12.171875 29.828125 
Q 18.359375 34.515625 30.609375 34.515625 
L 43.21875 34.515625 
L 43.21875 35.40625 
Q 43.21875 41.609375 39.140625 45 
Q 35.0625 48.390625 27.6875 48.390625 
Q 23 48.390625 18.546875 47.265625 
Q 14.109375 46.140625 10.015625 43.890625 
L 10.015625 52.203125 
Q 14.9375 54.109375 19.578125 55.046875 
Q 24.21875 56 28.609375 56 
Q 40.484375 56 46.34375 49.84375 
Q 52.203125 43.703125 52.203125 31.203125 
z
" id="DejaVuSans-97"/>
      <path d="M 9.421875 54.6875 
L 18.40625 54.6875 
L 18.40625 0 
L 9.421875 0 
z
M 9.421875 75.984375 
L 18.40625 75.984375 
L 18.40625 64.59375 
L 9.421875 64.59375 
z
" id="DejaVuSans-105"/>
      <path d="M 9.421875 75.984375 
L 18.40625 75.984375 
L 18.40625 0 
L 9.421875 0 
z
" id="DejaVuSans-108"/>
      <path d="M 18.3125 70.21875 
L 18.3125 54.6875 
L 36.8125 54.6875 
L 36.8125 47.703125 
L 18.3125 47.703125 
L 18.3125 18.015625 
Q 18.3125 11.328125 20.140625 9.421875 
Q 21.96875 7.515625 27.59375 7.515625 
L 36.8125 7.515625 
L 36.8125 0 
L 27.59375 0 
Q 17.1875 0 13.234375 3.875 
Q 9.28125 7.765625 9.28125 18.015625 
L 9.28125 47.703125 
L 2.6875 47.703125 
L 2.6875 54.6875 
L 9.28125 54.6875 
L 9.28125 70.21875 
z
" id="DejaVuSans-116"/>
      <path d="M 32.171875 -5.078125 
Q 28.375 -14.84375 24.75 -17.8125 
Q 21.140625 -20.796875 15.09375 -20.796875 
L 7.90625 -20.796875 
L 7.90625 -13.28125 
L 13.1875 -13.28125 
Q 16.890625 -13.28125 18.9375 -11.515625 
Q 21 -9.765625 23.484375 -3.21875 
L 25.09375 0.875 
L 2.984375 54.6875 
L 12.5 54.6875 
L 29.59375 11.921875 
L 46.6875 54.6875 
L 56.203125 54.6875 
z
" id="DejaVuSans-121"/>
      <path id="DejaVuSans-32"/>
      <path d="M 37.109375 75.984375 
L 37.109375 68.5 
L 28.515625 68.5 
Q 23.6875 68.5 21.796875 66.546875 
Q 19.921875 64.59375 19.921875 59.515625 
L 19.921875 54.6875 
L 34.71875 54.6875 
L 34.71875 47.703125 
L 19.921875 47.703125 
L 19.921875 0 
L 10.890625 0 
L 10.890625 47.703125 
L 2.296875 47.703125 
L 2.296875 54.6875 
L 10.890625 54.6875 
L 10.890625 58.5 
Q 10.890625 67.625 15.140625 71.796875 
Q 19.390625 75.984375 28.609375 75.984375 
z
" id="DejaVuSans-102"/>
      <path d="M 48.78125 52.59375 
L 48.78125 44.1875 
Q 44.96875 46.296875 41.140625 47.34375 
Q 37.3125 48.390625 33.40625 48.390625 
Q 24.65625 48.390625 19.8125 42.84375 
Q 14.984375 37.3125 14.984375 27.296875 
Q 14.984375 17.28125 19.8125 11.734375 
Q 24.65625 6.203125 33.40625 6.203125 
Q 37.3125 6.203125 41.140625 7.25 
Q 44.96875 8.296875 48.78125 10.40625 
L 48.78125 2.09375 
Q 45.015625 0.34375 40.984375 -0.53125 
Q 36.96875 -1.421875 32.421875 -1.421875 
Q 20.0625 -1.421875 12.78125 6.34375 
Q 5.515625 14.109375 5.515625 27.296875 
Q 5.515625 40.671875 12.859375 48.328125 
Q 20.21875 56 33.015625 56 
Q 37.15625 56 41.109375 55.140625 
Q 45.0625 54.296875 48.78125 52.59375 
z
" id="DejaVuSans-99"/>
      <path d="M 54.890625 33.015625 
L 54.890625 0 
L 45.90625 0 
L 45.90625 32.71875 
Q 45.90625 40.484375 42.875 44.328125 
Q 39.84375 48.1875 33.796875 48.1875 
Q 26.515625 48.1875 22.3125 43.546875 
Q 18.109375 38.921875 18.109375 30.90625 
L 18.109375 0 
L 9.078125 0 
L 9.078125 54.6875 
L 18.109375 54.6875 
L 18.109375 46.1875 
Q 21.34375 51.125 25.703125 53.5625 
Q 30.078125 56 35.796875 56 
Q 45.21875 56 50.046875 50.171875 
Q 54.890625 44.34375 54.890625 33.015625 
z
" id="DejaVuSans-110"/>
      <path d="M 8.5 21.578125 
L 8.5 54.6875 
L 17.484375 54.6875 
L 17.484375 21.921875 
Q 17.484375 14.15625 20.5 10.265625 
Q 23.53125 6.390625 29.59375 6.390625 
Q 36.859375 6.390625 41.078125 11.03125 
Q 45.3125 15.671875 45.3125 23.6875 
L 45.3125 54.6875 
L 54.296875 54.6875 
L 54.296875 0 
L 45.3125 0 
L 45.3125 8.40625 
Q 42.046875 3.421875 37.71875 1 
Q 33.40625 -1.421875 27.6875 -1.421875 
Q 18.265625 -1.421875 13.375 4.4375 
Q 8.5 10.296875 8.5 21.578125 
z
M 31.109375 56 
z
" id="DejaVuSans-117"/>
      <path d="M 56.203125 29.59375 
L 56.203125 25.203125 
L 14.890625 25.203125 
Q 15.484375 15.921875 20.484375 11.0625 
Q 25.484375 6.203125 34.421875 6.203125 
Q 39.59375 6.203125 44.453125 7.46875 
Q 49.3125 8.734375 54.109375 11.28125 
L 54.109375 2.78125 
Q 49.265625 0.734375 44.1875 -0.34375 
Q 39.109375 -1.421875 33.890625 -1.421875 
Q 20.796875 -1.421875 13.15625 6.1875 
Q 5.515625 13.8125 5.515625 26.8125 
Q 5.515625 40.234375 12.765625 48.109375 
Q 20.015625 56 32.328125 56 
Q 43.359375 56 49.78125 48.890625 
Q 56.203125 41.796875 56.203125 29.59375 
z
M 47.21875 32.234375 
Q 47.125 39.59375 43.09375 43.984375 
Q 39.0625 48.390625 32.421875 48.390625 
Q 24.90625 48.390625 20.390625 44.140625 
Q 15.875 39.890625 15.1875 32.171875 
z
" id="DejaVuSans-101"/>
     </defs>
     <g transform="translate(165.334219 335.860562)scale(0.1 -0.1)">
      <use xlink:href="#DejaVuSans-80"/>
      <use x="60.287109" xlink:href="#DejaVuSans-114"/>
      <use x="101.369141" xlink:href="#DejaVuSans-111"/>
      <use x="162.550781" xlink:href="#DejaVuSans-98"/>
      <use x="226.027344" xlink:href="#DejaVuSans-97"/>
      <use x="287.306641" xlink:href="#DejaVuSans-98"/>
      <use x="350.783203" xlink:href="#DejaVuSans-105"/>
      <use x="378.566406" xlink:href="#DejaVuSans-108"/>
      <use x="406.349609" xlink:href="#DejaVuSans-105"/>
      <use x="434.132812" xlink:href="#DejaVuSans-116"/>
      <use x="473.341797" xlink:href="#DejaVuSans-121"/>
      <use x="532.521484" xlink:href="#DejaVuSans-32"/>
      <use x="564.308594" xlink:href="#DejaVuSans-111"/>
      <use x="625.490234" xlink:href="#DejaVuSans-102"/>
      <use x="660.695312" xlink:href="#DejaVuSans-32"/>
      <use x="692.482422" xlink:href="#DejaVuSans-99"/>
      <use x="747.462891" xlink:href="#DejaVuSans-111"/>
      <use x="808.644531" xlink:href="#DejaVuSans-110"/>
      <use x="872.023438" xlink:href="#DejaVuSans-116"/>
      <use x="911.232422" xlink:href="#DejaVuSans-97"/>
      <use x="972.511719" xlink:href="#DejaVuSans-99"/>
      <use x="1027.492188" xlink:href="#DejaVuSans-116"/>
      <use x="1066.701172" xlink:href="#DejaVuSans-32"/>
      <use x="1098.488281" xlink:href="#DejaVuSans-102"/>
      <use x="1133.693359" xlink:href="#DejaVuSans-97"/>
      <use x="1194.972656" xlink:href="#DejaVuSans-105"/>
      <use x="1222.755859" xlink:href="#DejaVuSans-108"/>
      <use x="1250.539062" xlink:href="#DejaVuSans-117"/>
      <use x="1313.917969" xlink:href="#DejaVuSans-114"/>
      <use x="1355" xlink:href="#DejaVuSans-101"/>
     </g>
    </g>
   </g>
   <g id="matplotlib.axis_2">
    <g id="ytick_1">
     <g id="line2d_10">
      <defs>
       <path d="M 0 0 
L -3.5 0 
" id="m0b8a23acb4" style="stroke:#000000;stroke-width:0.8;"/>
      </defs>
      <g>
       <use style="stroke:#000000;stroke-width:0.8;" x="57.6" xlink:href="#m0b8a23acb4" y="298.790723"/>
      </g>
     </g>
     <g id="text_11">
      <!-- −1400 -->
      <defs>
       <path d="M 10.59375 35.5 
L 73.1875 35.5 
L 73.1875 27.203125 
L 10.59375 27.203125 
z
" id="DejaVuSans-8722"/>
      </defs>
      <g transform="translate(16.770313 302.589941)scale(0.1 -0.1)">
       <use xlink:href="#DejaVuSans-8722"/>
       <use x="83.789062" xlink:href="#DejaVuSans-49"/>
       <use x="147.412109" xlink:href="#DejaVuSans-52"/>
       <use x="211.035156" xlink:href="#DejaVuSans-48"/>
       <use x="274.658203" xlink:href="#DejaVuSans-48"/>
      </g>
     </g>
    </g>
    <g id="ytick_2">
     <g id="line2d_11">
      <g>
       <use style="stroke:#000000;stroke-width:0.8;" x="57.6" xlink:href="#m0b8a23acb4" y="265.111428"/>
      </g>
     </g>
     <g id="text_12">
      <!-- −1200 -->
      <g transform="translate(16.770313 268.910647)scale(0.1 -0.1)">
       <use xlink:href="#DejaVuSans-8722"/>
       <use x="83.789062" xlink:href="#DejaVuSans-49"/>
       <use x="147.412109" xlink:href="#DejaVuSans-50"/>
       <use x="211.035156" xlink:href="#DejaVuSans-48"/>
       <use x="274.658203" xlink:href="#DejaVuSans-48"/>
      </g>
     </g>
    </g>
    <g id="ytick_3">
     <g id="line2d_12">
      <g>
       <use style="stroke:#000000;stroke-width:0.8;" x="57.6" xlink:href="#m0b8a23acb4" y="231.432134"/>
      </g>
     </g>
     <g id="text_13">
      <!-- −1000 -->
      <g transform="translate(16.770313 235.231353)scale(0.1 -0.1)">
       <use xlink:href="#DejaVuSans-8722"/>
       <use x="83.789062" xlink:href="#DejaVuSans-49"/>
       <use x="147.412109" xlink:href="#DejaVuSans-48"/>
       <use x="211.035156" xlink:href="#DejaVuSans-48"/>
       <use x="274.658203" xlink:href="#DejaVuSans-48"/>
      </g>
     </g>
    </g>
    <g id="ytick_4">
     <g id="line2d_13">
      <g>
       <use style="stroke:#000000;stroke-width:0.8;" x="57.6" xlink:href="#m0b8a23acb4" y="197.752839"/>
      </g>
     </g>
     <g id="text_14">
      <!-- −800 -->
      <g transform="translate(23.132812 201.552058)scale(0.1 -0.1)">
       <use xlink:href="#DejaVuSans-8722"/>
       <use x="83.789062" xlink:href="#DejaVuSans-56"/>
       <use x="147.412109" xlink:href="#DejaVuSans-48"/>
       <use x="211.035156" xlink:href="#DejaVuSans-48"/>
      </g>
     </g>
    </g>
    <g id="ytick_5">
     <g id="line2d_14">
      <g>
       <use style="stroke:#000000;stroke-width:0.8;" x="57.6" xlink:href="#m0b8a23acb4" y="164.073545"/>
      </g>
     </g>
     <g id="text_15">
      <!-- −600 -->
      <g transform="translate(23.132812 167.872764)scale(0.1 -0.1)">
       <use xlink:href="#DejaVuSans-8722"/>
       <use x="83.789062" xlink:href="#DejaVuSans-54"/>
       <use x="147.412109" xlink:href="#DejaVuSans-48"/>
       <use x="211.035156" xlink:href="#DejaVuSans-48"/>
      </g>
     </g>
    </g>
    <g id="ytick_6">
     <g id="line2d_15">
      <g>
       <use style="stroke:#000000;stroke-width:0.8;" x="57.6" xlink:href="#m0b8a23acb4" y="130.394251"/>
      </g>
     </g>
     <g id="text_16">
      <!-- −400 -->
      <g transform="translate(23.132812 134.193469)scale(0.1 -0.1)">
       <use xlink:href="#DejaVuSans-8722"/>
       <use x="83.789062" xlink:href="#DejaVuSans-52"/>
       <use x="147.412109" xlink:href="#DejaVuSans-48"/>
       <use x="211.035156" xlink:href="#DejaVuSans-48"/>
      </g>
     </g>
    </g>
    <g id="ytick_7">
     <g id="line2d_16">
      <g>
       <use style="stroke:#000000;stroke-width:0.8;" x="57.6" xlink:href="#m0b8a23acb4" y="96.714956"/>
      </g>
     </g>
     <g id="text_17">
      <!-- −200 -->
      <g transform="translate(23.132812 100.514175)scale(0.1 -0.1)">
       <use xlink:href="#DejaVuSans-8722"/>
       <use x="83.789062" xlink:href="#DejaVuSans-50"/>
       <use x="147.412109" xlink:href="#DejaVuSans-48"/>
       <use x="211.035156" xlink:href="#DejaVuSans-48"/>
      </g>
     </g>
    </g>
    <g id="ytick_8">
     <g id="line2d_17">
      <g>
       <use style="stroke:#000000;stroke-width:0.8;" x="57.6" xlink:href="#m0b8a23acb4" y="63.035662"/>
      </g>
     </g>
     <g id="text_18">
      <!-- 0 -->
      <g transform="translate(44.2375 66.83488)scale(0.1 -0.1)">
       <use xlink:href="#DejaVuSans-48"/>
      </g>
     </g>
    </g>
    <g id="text_19">
     <!-- % Improvement regarding CGR -->
     <defs>
      <path d="M 72.703125 32.078125 
Q 68.453125 32.078125 66.03125 28.46875 
Q 63.625 24.859375 63.625 18.40625 
Q 63.625 12.0625 66.03125 8.421875 
Q 68.453125 4.78125 72.703125 4.78125 
Q 76.859375 4.78125 79.265625 8.421875 
Q 81.6875 12.0625 81.6875 18.40625 
Q 81.6875 24.8125 79.265625 28.4375 
Q 76.859375 32.078125 72.703125 32.078125 
z
M 72.703125 38.28125 
Q 80.421875 38.28125 84.953125 32.90625 
Q 89.5 27.546875 89.5 18.40625 
Q 89.5 9.28125 84.9375 3.921875 
Q 80.375 -1.421875 72.703125 -1.421875 
Q 64.890625 -1.421875 60.34375 3.921875 
Q 55.8125 9.28125 55.8125 18.40625 
Q 55.8125 27.59375 60.375 32.9375 
Q 64.9375 38.28125 72.703125 38.28125 
z
M 22.3125 68.015625 
Q 18.109375 68.015625 15.6875 64.375 
Q 13.28125 60.75 13.28125 54.390625 
Q 13.28125 47.953125 15.671875 44.328125 
Q 18.0625 40.71875 22.3125 40.71875 
Q 26.5625 40.71875 28.96875 44.328125 
Q 31.390625 47.953125 31.390625 54.390625 
Q 31.390625 60.6875 28.953125 64.34375 
Q 26.515625 68.015625 22.3125 68.015625 
z
M 66.40625 74.21875 
L 74.21875 74.21875 
L 28.609375 -1.421875 
L 20.796875 -1.421875 
z
M 22.3125 74.21875 
Q 30.03125 74.21875 34.609375 68.875 
Q 39.203125 63.53125 39.203125 54.390625 
Q 39.203125 45.171875 34.640625 39.84375 
Q 30.078125 34.515625 22.3125 34.515625 
Q 14.546875 34.515625 10.03125 39.859375 
Q 5.515625 45.21875 5.515625 54.390625 
Q 5.515625 63.484375 10.046875 68.84375 
Q 14.59375 74.21875 22.3125 74.21875 
z
" id="DejaVuSans-37"/>
      <path d="M 9.8125 72.90625 
L 19.671875 72.90625 
L 19.671875 0 
L 9.8125 0 
z
" id="DejaVuSans-73"/>
      <path d="M 52 44.1875 
Q 55.375 50.25 60.0625 53.125 
Q 64.75 56 71.09375 56 
Q 79.640625 56 84.28125 50.015625 
Q 88.921875 44.046875 88.921875 33.015625 
L 88.921875 0 
L 79.890625 0 
L 79.890625 32.71875 
Q 79.890625 40.578125 77.09375 44.375 
Q 74.3125 48.1875 68.609375 48.1875 
Q 61.625 48.1875 57.5625 43.546875 
Q 53.515625 38.921875 53.515625 30.90625 
L 53.515625 0 
L 44.484375 0 
L 44.484375 32.71875 
Q 44.484375 40.625 41.703125 44.40625 
Q 38.921875 48.1875 33.109375 48.1875 
Q 26.21875 48.1875 22.15625 43.53125 
Q 18.109375 38.875 18.109375 30.90625 
L 18.109375 0 
L 9.078125 0 
L 9.078125 54.6875 
L 18.109375 54.6875 
L 18.109375 46.1875 
Q 21.1875 51.21875 25.484375 53.609375 
Q 29.78125 56 35.6875 56 
Q 41.65625 56 45.828125 52.96875 
Q 50 49.953125 52 44.1875 
z
" id="DejaVuSans-109"/>
      <path d="M 18.109375 8.203125 
L 18.109375 -20.796875 
L 9.078125 -20.796875 
L 9.078125 54.6875 
L 18.109375 54.6875 
L 18.109375 46.390625 
Q 20.953125 51.265625 25.265625 53.625 
Q 29.59375 56 35.59375 56 
Q 45.5625 56 51.78125 48.09375 
Q 58.015625 40.1875 58.015625 27.296875 
Q 58.015625 14.40625 51.78125 6.484375 
Q 45.5625 -1.421875 35.59375 -1.421875 
Q 29.59375 -1.421875 25.265625 0.953125 
Q 20.953125 3.328125 18.109375 8.203125 
z
M 48.6875 27.296875 
Q 48.6875 37.203125 44.609375 42.84375 
Q 40.53125 48.484375 33.40625 48.484375 
Q 26.265625 48.484375 22.1875 42.84375 
Q 18.109375 37.203125 18.109375 27.296875 
Q 18.109375 17.390625 22.1875 11.75 
Q 26.265625 6.109375 33.40625 6.109375 
Q 40.53125 6.109375 44.609375 11.75 
Q 48.6875 17.390625 48.6875 27.296875 
z
" id="DejaVuSans-112"/>
      <path d="M 2.984375 54.6875 
L 12.5 54.6875 
L 29.59375 8.796875 
L 46.6875 54.6875 
L 56.203125 54.6875 
L 35.6875 0 
L 23.484375 0 
z
" id="DejaVuSans-118"/>
      <path d="M 45.40625 27.984375 
Q 45.40625 37.75 41.375 43.109375 
Q 37.359375 48.484375 30.078125 48.484375 
Q 22.859375 48.484375 18.828125 43.109375 
Q 14.796875 37.75 14.796875 27.984375 
Q 14.796875 18.265625 18.828125 12.890625 
Q 22.859375 7.515625 30.078125 7.515625 
Q 37.359375 7.515625 41.375 12.890625 
Q 45.40625 18.265625 45.40625 27.984375 
z
M 54.390625 6.78125 
Q 54.390625 -7.171875 48.1875 -13.984375 
Q 42 -20.796875 29.203125 -20.796875 
Q 24.46875 -20.796875 20.265625 -20.09375 
Q 16.0625 -19.390625 12.109375 -17.921875 
L 12.109375 -9.1875 
Q 16.0625 -11.328125 19.921875 -12.34375 
Q 23.78125 -13.375 27.78125 -13.375 
Q 36.625 -13.375 41.015625 -8.765625 
Q 45.40625 -4.15625 45.40625 5.171875 
L 45.40625 9.625 
Q 42.625 4.78125 38.28125 2.390625 
Q 33.9375 0 27.875 0 
Q 17.828125 0 11.671875 7.65625 
Q 5.515625 15.328125 5.515625 27.984375 
Q 5.515625 40.671875 11.671875 48.328125 
Q 17.828125 56 27.875 56 
Q 33.9375 56 38.28125 53.609375 
Q 42.625 51.21875 45.40625 46.390625 
L 45.40625 54.6875 
L 54.390625 54.6875 
z
" id="DejaVuSans-103"/>
      <path d="M 45.40625 46.390625 
L 45.40625 75.984375 
L 54.390625 75.984375 
L 54.390625 0 
L 45.40625 0 
L 45.40625 8.203125 
Q 42.578125 3.328125 38.25 0.953125 
Q 33.9375 -1.421875 27.875 -1.421875 
Q 17.96875 -1.421875 11.734375 6.484375 
Q 5.515625 14.40625 5.515625 27.296875 
Q 5.515625 40.1875 11.734375 48.09375 
Q 17.96875 56 27.875 56 
Q 33.9375 56 38.25 53.625 
Q 42.578125 51.265625 45.40625 46.390625 
z
M 14.796875 27.296875 
Q 14.796875 17.390625 18.875 11.75 
Q 22.953125 6.109375 30.078125 6.109375 
Q 37.203125 6.109375 41.296875 11.75 
Q 45.40625 17.390625 45.40625 27.296875 
Q 45.40625 37.203125 41.296875 42.84375 
Q 37.203125 48.484375 30.078125 48.484375 
Q 22.953125 48.484375 18.875 42.84375 
Q 14.796875 37.203125 14.796875 27.296875 
z
" id="DejaVuSans-100"/>
      <path d="M 64.40625 67.28125 
L 64.40625 56.890625 
Q 59.421875 61.53125 53.78125 63.8125 
Q 48.140625 66.109375 41.796875 66.109375 
Q 29.296875 66.109375 22.65625 58.46875 
Q 16.015625 50.828125 16.015625 36.375 
Q 16.015625 21.96875 22.65625 14.328125 
Q 29.296875 6.6875 41.796875 6.6875 
Q 48.140625 6.6875 53.78125 8.984375 
Q 59.421875 11.28125 64.40625 15.921875 
L 64.40625 5.609375 
Q 59.234375 2.09375 53.4375 0.328125 
Q 47.65625 -1.421875 41.21875 -1.421875 
Q 24.65625 -1.421875 15.125 8.703125 
Q 5.609375 18.84375 5.609375 36.375 
Q 5.609375 53.953125 15.125 64.078125 
Q 24.65625 74.21875 41.21875 74.21875 
Q 47.75 74.21875 53.53125 72.484375 
Q 59.328125 70.75 64.40625 67.28125 
z
" id="DejaVuSans-67"/>
      <path d="M 59.515625 10.40625 
L 59.515625 29.984375 
L 43.40625 29.984375 
L 43.40625 38.09375 
L 69.28125 38.09375 
L 69.28125 6.78125 
Q 63.578125 2.734375 56.6875 0.65625 
Q 49.8125 -1.421875 42 -1.421875 
Q 24.90625 -1.421875 15.25 8.5625 
Q 5.609375 18.5625 5.609375 36.375 
Q 5.609375 54.25 15.25 64.234375 
Q 24.90625 74.21875 42 74.21875 
Q 49.125 74.21875 55.546875 72.453125 
Q 61.96875 70.703125 67.390625 67.28125 
L 67.390625 56.78125 
Q 61.921875 61.421875 55.765625 63.765625 
Q 49.609375 66.109375 42.828125 66.109375 
Q 29.4375 66.109375 22.71875 58.640625 
Q 16.015625 51.171875 16.015625 36.375 
Q 16.015625 21.625 22.71875 14.15625 
Q 29.4375 6.6875 42.828125 6.6875 
Q 48.046875 6.6875 52.140625 7.59375 
Q 56.25 8.5 59.515625 10.40625 
z
" id="DejaVuSans-71"/>
      <path d="M 44.390625 34.1875 
Q 47.5625 33.109375 50.5625 29.59375 
Q 53.5625 26.078125 56.59375 19.921875 
L 66.609375 0 
L 56 0 
L 46.6875 18.703125 
Q 43.0625 26.03125 39.671875 28.421875 
Q 36.28125 30.8125 30.421875 30.8125 
L 19.671875 30.8125 
L 19.671875 0 
L 9.8125 0 
L 9.8125 72.90625 
L 32.078125 72.90625 
Q 44.578125 72.90625 50.734375 67.671875 
Q 56.890625 62.453125 56.890625 51.90625 
Q 56.890625 45.015625 53.6875 40.46875 
Q 50.484375 35.9375 44.390625 34.1875 
z
M 19.671875 64.796875 
L 19.671875 38.921875 
L 32.078125 38.921875 
Q 39.203125 38.921875 42.84375 42.21875 
Q 46.484375 45.515625 46.484375 51.90625 
Q 46.484375 58.296875 42.84375 61.546875 
Q 39.203125 64.796875 32.078125 64.796875 
z
" id="DejaVuSans-82"/>
     </defs>
     <g transform="translate(10.690625 252.960031)rotate(-90)scale(0.1 -0.1)">
      <use xlink:href="#DejaVuSans-37"/>
      <use x="95.019531" xlink:href="#DejaVuSans-32"/>
      <use x="126.806641" xlink:href="#DejaVuSans-73"/>
      <use x="156.298828" xlink:href="#DejaVuSans-109"/>
      <use x="253.710938" xlink:href="#DejaVuSans-112"/>
      <use x="317.1875" xlink:href="#DejaVuSans-114"/>
      <use x="358.269531" xlink:href="#DejaVuSans-111"/>
      <use x="419.451172" xlink:href="#DejaVuSans-118"/>
      <use x="478.630859" xlink:href="#DejaVuSans-101"/>
      <use x="540.154297" xlink:href="#DejaVuSans-109"/>
      <use x="637.566406" xlink:href="#DejaVuSans-101"/>
      <use x="699.089844" xlink:href="#DejaVuSans-110"/>
      <use x="762.46875" xlink:href="#DejaVuSans-116"/>
      <use x="801.677734" xlink:href="#DejaVuSans-32"/>
      <use x="833.464844" xlink:href="#DejaVuSans-114"/>
      <use x="874.546875" xlink:href="#DejaVuSans-101"/>
      <use x="936.070312" xlink:href="#DejaVuSans-103"/>
      <use x="999.546875" xlink:href="#DejaVuSans-97"/>
      <use x="1060.826172" xlink:href="#DejaVuSans-114"/>
      <use x="1101.923828" xlink:href="#DejaVuSans-100"/>
      <use x="1165.400391" xlink:href="#DejaVuSans-105"/>
      <use x="1193.183594" xlink:href="#DejaVuSans-110"/>
      <use x="1256.5625" xlink:href="#DejaVuSans-103"/>
      <use x="1320.039062" xlink:href="#DejaVuSans-32"/>
      <use x="1351.826172" xlink:href="#DejaVuSans-67"/>
      <use x="1421.650391" xlink:href="#DejaVuSans-71"/>
      <use x="1499.140625" xlink:href="#DejaVuSans-82"/>
     </g>
    </g>
   </g>
   <g id="patch_147">
    <path d="M 57.6 307.584 
L 57.6 41.472 
" style="fill:none;stroke:#000000;stroke-linecap:square;stroke-linejoin:miter;stroke-width:0.8;"/>
   </g>
   <g id="patch_148">
    <path d="M 414.72 307.584 
L 414.72 41.472 
" style="fill:none;stroke:#000000;stroke-linecap:square;stroke-linejoin:miter;stroke-width:0.8;"/>
   </g>
   <g id="patch_149">
    <path d="M 57.6 307.584 
L 414.72 307.584 
" style="fill:none;stroke:#000000;stroke-linecap:square;stroke-linejoin:miter;stroke-width:0.8;"/>
   </g>
   <g id="patch_150">
    <path d="M 57.6 41.472 
L 414.72 41.472 
" style="fill:none;stroke:#000000;stroke-linecap:square;stroke-linejoin:miter;stroke-width:0.8;"/>
   </g>
   <g id="legend_1">
    <g id="patch_151">
     <path d="M 176.763125 302.584 
L 295.556875 302.584 
Q 297.556875 302.584 297.556875 300.584 
L 297.556875 66.734 
Q 297.556875 64.734 295.556875 64.734 
L 176.763125 64.734 
Q 174.763125 64.734 174.763125 66.734 
L 174.763125 300.584 
Q 174.763125 302.584 176.763125 302.584 
z
" style="fill:#ffffff;opacity:0.8;stroke:#cccccc;stroke-linejoin:miter;"/>
    </g>
    <g id="patch_152">
     <path d="M 178.763125 76.332438 
L 198.763125 76.332438 
L 198.763125 69.332438 
L 178.763125 69.332438 
z
"/>
    </g>
    <g id="text_20">
     <!-- CGR-FaultsAware -->
     <defs>
      <path d="M 4.890625 31.390625 
L 31.203125 31.390625 
L 31.203125 23.390625 
L 4.890625 23.390625 
z
" id="DejaVuSans-45"/>
      <path d="M 9.8125 72.90625 
L 51.703125 72.90625 
L 51.703125 64.59375 
L 19.671875 64.59375 
L 19.671875 43.109375 
L 48.578125 43.109375 
L 48.578125 34.8125 
L 19.671875 34.8125 
L 19.671875 0 
L 9.8125 0 
z
" id="DejaVuSans-70"/>
      <path d="M 44.28125 53.078125 
L 44.28125 44.578125 
Q 40.484375 46.53125 36.375 47.5 
Q 32.28125 48.484375 27.875 48.484375 
Q 21.1875 48.484375 17.84375 46.4375 
Q 14.5 44.390625 14.5 40.28125 
Q 14.5 37.15625 16.890625 35.375 
Q 19.28125 33.59375 26.515625 31.984375 
L 29.59375 31.296875 
Q 39.15625 29.25 43.1875 25.515625 
Q 47.21875 21.78125 47.21875 15.09375 
Q 47.21875 7.46875 41.1875 3.015625 
Q 35.15625 -1.421875 24.609375 -1.421875 
Q 20.21875 -1.421875 15.453125 -0.5625 
Q 10.6875 0.296875 5.421875 2 
L 5.421875 11.28125 
Q 10.40625 8.6875 15.234375 7.390625 
Q 20.0625 6.109375 24.8125 6.109375 
Q 31.15625 6.109375 34.5625 8.28125 
Q 37.984375 10.453125 37.984375 14.40625 
Q 37.984375 18.0625 35.515625 20.015625 
Q 33.0625 21.96875 24.703125 23.78125 
L 21.578125 24.515625 
Q 13.234375 26.265625 9.515625 29.90625 
Q 5.8125 33.546875 5.8125 39.890625 
Q 5.8125 47.609375 11.28125 51.796875 
Q 16.75 56 26.8125 56 
Q 31.78125 56 36.171875 55.265625 
Q 40.578125 54.546875 44.28125 53.078125 
z
" id="DejaVuSans-115"/>
      <path d="M 34.1875 63.1875 
L 20.796875 26.90625 
L 47.609375 26.90625 
z
M 28.609375 72.90625 
L 39.796875 72.90625 
L 67.578125 0 
L 57.328125 0 
L 50.6875 18.703125 
L 17.828125 18.703125 
L 11.1875 0 
L 0.78125 0 
z
" id="DejaVuSans-65"/>
      <path d="M 4.203125 54.6875 
L 13.1875 54.6875 
L 24.421875 12.015625 
L 35.59375 54.6875 
L 46.1875 54.6875 
L 57.421875 12.015625 
L 68.609375 54.6875 
L 77.59375 54.6875 
L 63.28125 0 
L 52.6875 0 
L 40.921875 44.828125 
L 29.109375 0 
L 18.5 0 
z
" id="DejaVuSans-119"/>
     </defs>
     <g transform="translate(206.763125 76.332438)scale(0.1 -0.1)">
      <use xlink:href="#DejaVuSans-67"/>
      <use x="69.824219" xlink:href="#DejaVuSans-71"/>
      <use x="147.314453" xlink:href="#DejaVuSans-82"/>
      <use x="216.734375" xlink:href="#DejaVuSans-45"/>
      <use x="252.818359" xlink:href="#DejaVuSans-70"/>
      <use x="310.197266" xlink:href="#DejaVuSans-97"/>
      <use x="371.476562" xlink:href="#DejaVuSans-117"/>
      <use x="434.855469" xlink:href="#DejaVuSans-108"/>
      <use x="462.638672" xlink:href="#DejaVuSans-116"/>
      <use x="501.847656" xlink:href="#DejaVuSans-115"/>
      <use x="553.947266" xlink:href="#DejaVuSans-65"/>
      <use x="622.292969" xlink:href="#DejaVuSans-119"/>
      <use x="704.080078" xlink:href="#DejaVuSans-97"/>
      <use x="765.359375" xlink:href="#DejaVuSans-114"/>
      <use x="806.441406" xlink:href="#DejaVuSans-101"/>
     </g>
    </g>
    <g id="patch_153">
     <path d="M 178.763125 91.010563 
L 198.763125 91.010563 
L 198.763125 84.010563 
L 178.763125 84.010563 
z
" style="fill:#ffff00;"/>
    </g>
    <g id="text_21">
     <!-- CGR-2 -->
     <g transform="translate(206.763125 91.010563)scale(0.1 -0.1)">
      <use xlink:href="#DejaVuSans-67"/>
      <use x="69.824219" xlink:href="#DejaVuSans-71"/>
      <use x="147.314453" xlink:href="#DejaVuSans-82"/>
      <use x="216.734375" xlink:href="#DejaVuSans-45"/>
      <use x="252.818359" xlink:href="#DejaVuSans-50"/>
     </g>
    </g>
    <g id="patch_154">
     <path d="M 178.763125 105.688688 
L 198.763125 105.688688 
L 198.763125 98.688688 
L 178.763125 98.688688 
z
" style="fill:#8b008b;"/>
    </g>
    <g id="text_22">
     <!-- CGR-BRUF -->
     <defs>
      <path d="M 19.671875 34.8125 
L 19.671875 8.109375 
L 35.5 8.109375 
Q 43.453125 8.109375 47.28125 11.40625 
Q 51.125 14.703125 51.125 21.484375 
Q 51.125 28.328125 47.28125 31.5625 
Q 43.453125 34.8125 35.5 34.8125 
z
M 19.671875 64.796875 
L 19.671875 42.828125 
L 34.28125 42.828125 
Q 41.5 42.828125 45.03125 45.53125 
Q 48.578125 48.25 48.578125 53.8125 
Q 48.578125 59.328125 45.03125 62.0625 
Q 41.5 64.796875 34.28125 64.796875 
z
M 9.8125 72.90625 
L 35.015625 72.90625 
Q 46.296875 72.90625 52.390625 68.21875 
Q 58.5 63.53125 58.5 54.890625 
Q 58.5 48.1875 55.375 44.234375 
Q 52.25 40.28125 46.1875 39.3125 
Q 53.46875 37.75 57.5 32.78125 
Q 61.53125 27.828125 61.53125 20.40625 
Q 61.53125 10.640625 54.890625 5.3125 
Q 48.25 0 35.984375 0 
L 9.8125 0 
z
" id="DejaVuSans-66"/>
      <path d="M 8.6875 72.90625 
L 18.609375 72.90625 
L 18.609375 28.609375 
Q 18.609375 16.890625 22.84375 11.734375 
Q 27.09375 6.59375 36.625 6.59375 
Q 46.09375 6.59375 50.34375 11.734375 
Q 54.59375 16.890625 54.59375 28.609375 
L 54.59375 72.90625 
L 64.5 72.90625 
L 64.5 27.390625 
Q 64.5 13.140625 57.4375 5.859375 
Q 50.390625 -1.421875 36.625 -1.421875 
Q 22.796875 -1.421875 15.734375 5.859375 
Q 8.6875 13.140625 8.6875 27.390625 
z
" id="DejaVuSans-85"/>
     </defs>
     <g transform="translate(206.763125 105.688688)scale(0.1 -0.1)">
      <use xlink:href="#DejaVuSans-67"/>
      <use x="69.824219" xlink:href="#DejaVuSans-71"/>
      <use x="147.314453" xlink:href="#DejaVuSans-82"/>
      <use x="216.734375" xlink:href="#DejaVuSans-45"/>
      <use x="252.771484" xlink:href="#DejaVuSans-66"/>
      <use x="321.375" xlink:href="#DejaVuSans-82"/>
      <use x="390.857422" xlink:href="#DejaVuSans-85"/>
      <use x="464.050781" xlink:href="#DejaVuSans-70"/>
     </g>
    </g>
    <g id="patch_155">
     <path d="M 178.763125 120.366813 
L 198.763125 120.366813 
L 198.763125 113.366813 
L 178.763125 113.366813 
z
" style="fill:#800080;"/>
    </g>
    <g id="text_23">
     <!-- CGR-DelTime -->
     <defs>
      <path d="M 19.671875 64.796875 
L 19.671875 8.109375 
L 31.59375 8.109375 
Q 46.6875 8.109375 53.6875 14.9375 
Q 60.6875 21.78125 60.6875 36.53125 
Q 60.6875 51.171875 53.6875 57.984375 
Q 46.6875 64.796875 31.59375 64.796875 
z
M 9.8125 72.90625 
L 30.078125 72.90625 
Q 51.265625 72.90625 61.171875 64.09375 
Q 71.09375 55.28125 71.09375 36.53125 
Q 71.09375 17.671875 61.125 8.828125 
Q 51.171875 0 30.078125 0 
L 9.8125 0 
z
" id="DejaVuSans-68"/>
      <path d="M -0.296875 72.90625 
L 61.375 72.90625 
L 61.375 64.59375 
L 35.5 64.59375 
L 35.5 0 
L 25.59375 0 
L 25.59375 64.59375 
L -0.296875 64.59375 
z
" id="DejaVuSans-84"/>
     </defs>
     <g transform="translate(206.763125 120.366813)scale(0.1 -0.1)">
      <use xlink:href="#DejaVuSans-67"/>
      <use x="69.824219" xlink:href="#DejaVuSans-71"/>
      <use x="147.314453" xlink:href="#DejaVuSans-82"/>
      <use x="216.734375" xlink:href="#DejaVuSans-45"/>
      <use x="252.818359" xlink:href="#DejaVuSans-68"/>
      <use x="329.820312" xlink:href="#DejaVuSans-101"/>
      <use x="391.34375" xlink:href="#DejaVuSans-108"/>
      <use x="419.126953" xlink:href="#DejaVuSans-84"/>
      <use x="480.164062" xlink:href="#DejaVuSans-105"/>
      <use x="507.947266" xlink:href="#DejaVuSans-109"/>
      <use x="605.359375" xlink:href="#DejaVuSans-101"/>
     </g>
    </g>
    <g id="patch_156">
     <path d="M 178.763125 135.044938 
L 198.763125 135.044938 
L 198.763125 128.044938 
L 178.763125 128.044938 
z
" style="fill:#add8e6;"/>
    </g>
    <g id="text_24">
     <!-- CGR-Hops -->
     <defs>
      <path d="M 9.8125 72.90625 
L 19.671875 72.90625 
L 19.671875 43.015625 
L 55.515625 43.015625 
L 55.515625 72.90625 
L 65.375 72.90625 
L 65.375 0 
L 55.515625 0 
L 55.515625 34.71875 
L 19.671875 34.71875 
L 19.671875 0 
L 9.8125 0 
z
" id="DejaVuSans-72"/>
     </defs>
     <g transform="translate(206.763125 135.044938)scale(0.1 -0.1)">
      <use xlink:href="#DejaVuSans-67"/>
      <use x="69.824219" xlink:href="#DejaVuSans-71"/>
      <use x="147.314453" xlink:href="#DejaVuSans-82"/>
      <use x="216.734375" xlink:href="#DejaVuSans-45"/>
      <use x="252.818359" xlink:href="#DejaVuSans-72"/>
      <use x="328.013672" xlink:href="#DejaVuSans-111"/>
      <use x="389.195312" xlink:href="#DejaVuSans-112"/>
      <use x="452.671875" xlink:href="#DejaVuSans-115"/>
     </g>
    </g>
    <g id="patch_157">
     <path d="M 178.763125 149.723063 
L 198.763125 149.723063 
L 198.763125 142.723063 
L 178.763125 142.723063 
z
" style="fill:#ff0000;"/>
    </g>
    <g id="text_25">
     <!-- BRUF-4 -->
     <g transform="translate(206.763125 149.723063)scale(0.1 -0.1)">
      <use xlink:href="#DejaVuSans-66"/>
      <use x="68.603516" xlink:href="#DejaVuSans-82"/>
      <use x="138.085938" xlink:href="#DejaVuSans-85"/>
      <use x="211.279297" xlink:href="#DejaVuSans-70"/>
      <use x="268.798828" xlink:href="#DejaVuSans-45"/>
      <use x="304.882812" xlink:href="#DejaVuSans-52"/>
     </g>
    </g>
    <g id="patch_158">
     <path d="M 178.763125 164.401188 
L 198.763125 164.401188 
L 198.763125 157.401188 
L 178.763125 157.401188 
z
" style="fill:#ff0000;"/>
    </g>
    <g id="text_26">
     <!-- BRUF-3 -->
     <g transform="translate(206.763125 164.401188)scale(0.1 -0.1)">
      <use xlink:href="#DejaVuSans-66"/>
      <use x="68.603516" xlink:href="#DejaVuSans-82"/>
      <use x="138.085938" xlink:href="#DejaVuSans-85"/>
      <use x="211.279297" xlink:href="#DejaVuSans-70"/>
      <use x="268.798828" xlink:href="#DejaVuSans-45"/>
      <use x="304.882812" xlink:href="#DejaVuSans-51"/>
     </g>
    </g>
    <g id="patch_159">
     <path d="M 178.763125 179.079313 
L 198.763125 179.079313 
L 198.763125 172.079313 
L 178.763125 172.079313 
z
" style="fill:#ff0000;"/>
    </g>
    <g id="text_27">
     <!-- BRUF-2 -->
     <g transform="translate(206.763125 179.079313)scale(0.1 -0.1)">
      <use xlink:href="#DejaVuSans-66"/>
      <use x="68.603516" xlink:href="#DejaVuSans-82"/>
      <use x="138.085938" xlink:href="#DejaVuSans-85"/>
      <use x="211.279297" xlink:href="#DejaVuSans-70"/>
      <use x="268.798828" xlink:href="#DejaVuSans-45"/>
      <use x="304.882812" xlink:href="#DejaVuSans-50"/>
     </g>
    </g>
    <g id="patch_160">
     <path d="M 178.763125 193.757438 
L 198.763125 193.757438 
L 198.763125 186.757438 
L 178.763125 186.757438 
z
" style="fill:#ff0000;"/>
    </g>
    <g id="text_28">
     <!-- BRUF-1 -->
     <g transform="translate(206.763125 193.757438)scale(0.1 -0.1)">
      <use xlink:href="#DejaVuSans-66"/>
      <use x="68.603516" xlink:href="#DejaVuSans-82"/>
      <use x="138.085938" xlink:href="#DejaVuSans-85"/>
      <use x="211.279297" xlink:href="#DejaVuSans-70"/>
      <use x="268.798828" xlink:href="#DejaVuSans-45"/>
      <use x="304.882812" xlink:href="#DejaVuSans-49"/>
     </g>
    </g>
    <g id="patch_161">
     <path d="M 178.763125 208.435563 
L 198.763125 208.435563 
L 198.763125 201.435563 
L 178.763125 201.435563 
z
" style="fill:#0000ff;"/>
    </g>
    <g id="text_29">
     <!-- iBRUF-4 -->
     <g transform="translate(206.763125 208.435563)scale(0.1 -0.1)">
      <use xlink:href="#DejaVuSans-105"/>
      <use x="27.783203" xlink:href="#DejaVuSans-66"/>
      <use x="96.386719" xlink:href="#DejaVuSans-82"/>
      <use x="165.869141" xlink:href="#DejaVuSans-85"/>
      <use x="239.0625" xlink:href="#DejaVuSans-70"/>
      <use x="296.582031" xlink:href="#DejaVuSans-45"/>
      <use x="332.666016" xlink:href="#DejaVuSans-52"/>
     </g>
    </g>
    <g id="patch_162">
     <path d="M 178.763125 223.113687 
L 198.763125 223.113687 
L 198.763125 216.113687 
L 178.763125 216.113687 
z
" style="fill:#0000ff;"/>
    </g>
    <g id="text_30">
     <!-- iBRUF-3 -->
     <g transform="translate(206.763125 223.113687)scale(0.1 -0.1)">
      <use xlink:href="#DejaVuSans-105"/>
      <use x="27.783203" xlink:href="#DejaVuSans-66"/>
      <use x="96.386719" xlink:href="#DejaVuSans-82"/>
      <use x="165.869141" xlink:href="#DejaVuSans-85"/>
      <use x="239.0625" xlink:href="#DejaVuSans-70"/>
      <use x="296.582031" xlink:href="#DejaVuSans-45"/>
      <use x="332.666016" xlink:href="#DejaVuSans-51"/>
     </g>
    </g>
    <g id="patch_163">
     <path d="M 178.763125 237.791812 
L 198.763125 237.791812 
L 198.763125 230.791812 
L 178.763125 230.791812 
z
" style="fill:#0000ff;"/>
    </g>
    <g id="text_31">
     <!-- iBRUF-2 -->
     <g transform="translate(206.763125 237.791812)scale(0.1 -0.1)">
      <use xlink:href="#DejaVuSans-105"/>
      <use x="27.783203" xlink:href="#DejaVuSans-66"/>
      <use x="96.386719" xlink:href="#DejaVuSans-82"/>
      <use x="165.869141" xlink:href="#DejaVuSans-85"/>
      <use x="239.0625" xlink:href="#DejaVuSans-70"/>
      <use x="296.582031" xlink:href="#DejaVuSans-45"/>
      <use x="332.666016" xlink:href="#DejaVuSans-50"/>
     </g>
    </g>
    <g id="patch_164">
     <path d="M 178.763125 252.469937 
L 198.763125 252.469937 
L 198.763125 245.469937 
L 178.763125 245.469937 
z
" style="fill:#0000ff;"/>
    </g>
    <g id="text_32">
     <!-- iBRUF-1 -->
     <g transform="translate(206.763125 252.469937)scale(0.1 -0.1)">
      <use xlink:href="#DejaVuSans-105"/>
      <use x="27.783203" xlink:href="#DejaVuSans-66"/>
      <use x="96.386719" xlink:href="#DejaVuSans-82"/>
      <use x="165.869141" xlink:href="#DejaVuSans-85"/>
      <use x="239.0625" xlink:href="#DejaVuSans-70"/>
      <use x="296.582031" xlink:href="#DejaVuSans-45"/>
      <use x="332.666016" xlink:href="#DejaVuSans-49"/>
     </g>
    </g>
    <g id="patch_165">
     <path d="M 178.763125 267.148062 
L 198.763125 267.148062 
L 198.763125 260.148062 
L 178.763125 260.148062 
z
" style="fill:#ffc0cb;"/>
    </g>
    <g id="text_33">
     <!-- SprayAndWait-4 -->
     <defs>
      <path d="M 53.515625 70.515625 
L 53.515625 60.890625 
Q 47.90625 63.578125 42.921875 64.890625 
Q 37.9375 66.21875 33.296875 66.21875 
Q 25.25 66.21875 20.875 63.09375 
Q 16.5 59.96875 16.5 54.203125 
Q 16.5 49.359375 19.40625 46.890625 
Q 22.3125 44.4375 30.421875 42.921875 
L 36.375 41.703125 
Q 47.40625 39.59375 52.65625 34.296875 
Q 57.90625 29 57.90625 20.125 
Q 57.90625 9.515625 50.796875 4.046875 
Q 43.703125 -1.421875 29.984375 -1.421875 
Q 24.8125 -1.421875 18.96875 -0.25 
Q 13.140625 0.921875 6.890625 3.21875 
L 6.890625 13.375 
Q 12.890625 10.015625 18.65625 8.296875 
Q 24.421875 6.59375 29.984375 6.59375 
Q 38.421875 6.59375 43.015625 9.90625 
Q 47.609375 13.234375 47.609375 19.390625 
Q 47.609375 24.75 44.3125 27.78125 
Q 41.015625 30.8125 33.5 32.328125 
L 27.484375 33.5 
Q 16.453125 35.6875 11.515625 40.375 
Q 6.59375 45.0625 6.59375 53.421875 
Q 6.59375 63.09375 13.40625 68.65625 
Q 20.21875 74.21875 32.171875 74.21875 
Q 37.3125 74.21875 42.625 73.28125 
Q 47.953125 72.359375 53.515625 70.515625 
z
" id="DejaVuSans-83"/>
      <path d="M 3.328125 72.90625 
L 13.28125 72.90625 
L 28.609375 11.28125 
L 43.890625 72.90625 
L 54.984375 72.90625 
L 70.3125 11.28125 
L 85.59375 72.90625 
L 95.609375 72.90625 
L 77.296875 0 
L 64.890625 0 
L 49.515625 63.28125 
L 33.984375 0 
L 21.578125 0 
z
" id="DejaVuSans-87"/>
     </defs>
     <g transform="translate(206.763125 267.148062)scale(0.1 -0.1)">
      <use xlink:href="#DejaVuSans-83"/>
      <use x="63.476562" xlink:href="#DejaVuSans-112"/>
      <use x="126.953125" xlink:href="#DejaVuSans-114"/>
      <use x="168.066406" xlink:href="#DejaVuSans-97"/>
      <use x="229.345703" xlink:href="#DejaVuSans-121"/>
      <use x="288.525391" xlink:href="#DejaVuSans-65"/>
      <use x="356.933594" xlink:href="#DejaVuSans-110"/>
      <use x="420.3125" xlink:href="#DejaVuSans-100"/>
      <use x="483.789062" xlink:href="#DejaVuSans-87"/>
      <use x="582.572266" xlink:href="#DejaVuSans-97"/>
      <use x="643.851562" xlink:href="#DejaVuSans-105"/>
      <use x="671.634766" xlink:href="#DejaVuSans-116"/>
      <use x="710.84375" xlink:href="#DejaVuSans-45"/>
      <use x="746.927734" xlink:href="#DejaVuSans-52"/>
     </g>
    </g>
    <g id="patch_166">
     <path d="M 178.763125 281.826187 
L 198.763125 281.826187 
L 198.763125 274.826187 
L 178.763125 274.826187 
z
" style="fill:#ffc0cb;"/>
    </g>
    <g id="text_34">
     <!-- SprayAndWait-3 -->
     <g transform="translate(206.763125 281.826187)scale(0.1 -0.1)">
      <use xlink:href="#DejaVuSans-83"/>
      <use x="63.476562" xlink:href="#DejaVuSans-112"/>
      <use x="126.953125" xlink:href="#DejaVuSans-114"/>
      <use x="168.066406" xlink:href="#DejaVuSans-97"/>
      <use x="229.345703" xlink:href="#DejaVuSans-121"/>
      <use x="288.525391" xlink:href="#DejaVuSans-65"/>
      <use x="356.933594" xlink:href="#DejaVuSans-110"/>
      <use x="420.3125" xlink:href="#DejaVuSans-100"/>
      <use x="483.789062" xlink:href="#DejaVuSans-87"/>
      <use x="582.572266" xlink:href="#DejaVuSans-97"/>
      <use x="643.851562" xlink:href="#DejaVuSans-105"/>
      <use x="671.634766" xlink:href="#DejaVuSans-116"/>
      <use x="710.84375" xlink:href="#DejaVuSans-45"/>
      <use x="746.927734" xlink:href="#DejaVuSans-51"/>
     </g>
    </g>
    <g id="patch_167">
     <path d="M 178.763125 296.504312 
L 198.763125 296.504312 
L 198.763125 289.504312 
L 178.763125 289.504312 
z
" style="fill:#ffc0cb;"/>
    </g>
    <g id="text_35">
     <!-- SprayAndWait-2 -->
     <g transform="translate(206.763125 296.504312)scale(0.1 -0.1)">
      <use xlink:href="#DejaVuSans-83"/>
      <use x="63.476562" xlink:href="#DejaVuSans-112"/>
      <use x="126.953125" xlink:href="#DejaVuSans-114"/>
      <use x="168.066406" xlink:href="#DejaVuSans-97"/>
      <use x="229.345703" xlink:href="#DejaVuSans-121"/>
      <use x="288.525391" xlink:href="#DejaVuSans-65"/>
      <use x="356.933594" xlink:href="#DejaVuSans-110"/>
      <use x="420.3125" xlink:href="#DejaVuSans-100"/>
      <use x="483.789062" xlink:href="#DejaVuSans-87"/>
      <use x="582.572266" xlink:href="#DejaVuSans-97"/>
      <use x="643.851562" xlink:href="#DejaVuSans-105"/>
      <use x="671.634766" xlink:href="#DejaVuSans-116"/>
      <use x="710.84375" xlink:href="#DejaVuSans-45"/>
      <use x="746.927734" xlink:href="#DejaVuSans-50"/>
     </g>
    </g>
   </g>
  </g>
 </g>
 <defs>
  <clipPath id="pdec9f7a2d4">
   <rect height="266.112" width="357.12" x="57.6" y="41.472"/>
  </clipPath>
 </defs>
</svg>
