Compute BRUF time: 6622.716524839401 seconds
States number: 2936103
Transitions number: 3731080
Average Memory Consumption: 246468027.73333332 bytes
Max Memory Consumption: 282656768 bytes
Min Memory Consumption: 93036544 bytes
