a contact +0000000 +0000060 16 35 12500
a contact +0000000 +0000060 10 33 12500
a contact +0000000 +0000060 19 24 12500
a contact +0000060 +0000113 19 24 12500
a contact +0000060 +0000120 22 33 12500
a contact +0000060 +0000120 14 33 12500
a contact +0000080 +0000120 28 25 12500
a contact +0000080 +0000120 25 28 12500
a contact +0000080 +0000120 30 23 12500
a contact +0000080 +0000120 23 30 12500
a contact +0000120 +0000180 22 33 12500
a contact +0000120 +0000180 14 33 12500
a contact +0000120 +0000180 28 25 12500
a contact +0000120 +0000180 25 28 12500
a contact +0000120 +0000180 30 23 12500
a contact +0000120 +0000180 23 30 12500
a contact +0000180 +0000240 22 33 12500
a contact +0000180 +0000240 14 33 12500
a contact +0000180 +0000240 28 25 12500
a contact +0000180 +0000240 25 28 12500
a contact +0000180 +0000240 30 23 12500
a contact +0000180 +0000240 23 30 12500
a contact +0000240 +0000299 14 33 12500
a contact +0000240 +0000300 28 25 12500
a contact +0000240 +0000300 25 28 12500
a contact +0000240 +0000300 30 23 12500
a contact +0000240 +0000300 23 30 12500
a contact +0000240 +0000300 8 24 12500
a contact +0000260 +0000300 6 33 12500
a contact +0000300 +0000360 8 24 12500
a contact +0000300 +0000360 6 33 12500
a contact +0000360 +0000420 8 24 12500
a contact +0000360 +0000420 6 33 12500
a contact +0000420 +0000480 6 33 12500
a contact +0000424 +0000480 3 37 12500
a contact +0000435 +0000480 36 24 12500
a contact +0000435 +0000480 24 36 12500
a contact +0000435 +0000480 26 38 12500
a contact +0000435 +0000480 38 26 12500
a contact +0000480 +0000540 3 37 12500
a contact +0000480 +0000540 36 24 12500
a contact +0000480 +0000540 24 36 12500
a contact +0000480 +0000540 26 38 12500
a contact +0000480 +0000540 38 26 12500
a contact +0000540 +0000600 3 37 12500
a contact +0000540 +0000600 36 24 12500
a contact +0000540 +0000600 24 36 12500
a contact +0000540 +0000600 26 38 12500
a contact +0000540 +0000600 38 26 12500
a contact +0000548 +0000600 1 36 12500
a contact +0000600 +0000660 3 37 12500
a contact +0000600 +0000660 36 24 12500
a contact +0000600 +0000660 24 36 12500
a contact +0000600 +0000660 26 38 12500
a contact +0000600 +0000660 38 26 12500
a contact +0000600 +0000660 1 36 12500
a contact +0000660 +0000720 1 36 12500
a contact +0000683 +0000720 16 29 12500
a contact +0000720 +0000780 1 36 12500
a contact +0000720 +0000780 16 29 12500
a contact +0000720 +0000780 9 24 12500
a contact +0000780 +0000840 16 29 12500
a contact +0000780 +0000840 9 24 12500
a contact +0000789 +0000840 35 32 12500
a contact +0000789 +0000840 34 37 12500
a contact +0000789 +0000840 37 34 12500
a contact +0000789 +0000840 32 35 12500
a contact +0000840 +0000900 16 29 12500
a contact +0000840 +0000900 9 24 12500
a contact +0000840 +0000900 35 32 12500
a contact +0000840 +0000900 34 37 12500
a contact +0000840 +0000900 37 34 12500
a contact +0000840 +0000900 32 35 12500
a contact +0000840 +0000900 13 36 12500
a contact +0000900 +0000960 35 32 12500
a contact +0000900 +0000960 34 37 12500
a contact +0000900 +0000960 37 34 12500
a contact +0000900 +0000960 32 35 12500
a contact +0000900 +0000960 13 36 12500
a contact +0000960 +0001020 35 32 12500
a contact +0000960 +0001020 34 37 12500
a contact +0000960 +0001020 37 34 12500
a contact +0000960 +0001020 32 35 12500
a contact +0000960 +0001007 13 36 12500
a contact +0000960 +0001020 4 36 12500
a contact +0000982 +0001020 11 24 12500
a contact +0000986 +0001020 6 23 12500
a contact +0001020 +0001080 4 36 12500
a contact +0001020 +0001080 11 24 12500
a contact +0001020 +0001080 6 23 12500
a contact +0001020 +0001080 20 29 12500
a contact +0001040 +0001080 5 26 12500
a contact +0001080 +0001140 11 24 12500
a contact +0001080 +0001140 6 23 12500
a contact +0001080 +0001140 20 29 12500
a contact +0001080 +0001140 5 26 12500
a contact +0001140 +0001200 11 24 12500
a contact +0001140 +0001200 6 23 12500
a contact +0001140 +0001200 20 29 12500
a contact +0001140 +0001200 5 26 12500
a contact +0001144 +0001200 30 33 12500
a contact +0001144 +0001200 31 28 12500
a contact +0001144 +0001200 33 30 12500
a contact +0001144 +0001200 28 31 12500
a contact +0001200 +0001260 5 26 12500
a contact +0001200 +0001260 30 33 12500
a contact +0001200 +0001260 31 28 12500
a contact +0001200 +0001260 33 30 12500
a contact +0001200 +0001260 28 31 12500
a contact +0001260 +0001320 30 33 12500
a contact +0001260 +0001320 31 28 12500
a contact +0001260 +0001320 33 30 12500
a contact +0001260 +0001320 28 31 12500
a contact +0001260 +0001320 17 24 12500
a contact +0001320 +0001380 30 33 12500
a contact +0001320 +0001380 31 28 12500
a contact +0001320 +0001380 33 30 12500
a contact +0001320 +0001380 28 31 12500
a contact +0001320 +0001380 17 24 12500
a contact +0001320 +0001380 10 32 12500
a contact +0001380 +0001440 17 24 12500
a contact +0001380 +0001440 10 32 12500
a contact +0001380 +0001440 19 23 12500
a contact +0001393 +0001440 16 38 12500
a contact +0001440 +0001500 10 32 12500
a contact +0001440 +0001500 19 23 12500
a contact +0001440 +0001500 16 38 12500
a contact +0001500 +0001560 10 32 12500
a contact +0001500 +0001560 19 23 12500
a contact +0001500 +0001560 7 23 12500
a contact +0001500 +0001560 29 26 12500
a contact +0001500 +0001560 27 24 12500
a contact +0001500 +0001560 26 29 12500
a contact +0001500 +0001560 24 27 12500
a contact +0001560 +0001620 7 23 12500
a contact +0001560 +0001620 29 26 12500
a contact +0001560 +0001620 27 24 12500
a contact +0001560 +0001620 26 29 12500
a contact +0001560 +0001620 24 27 12500
a contact +0001560 +0001620 14 32 12500
a contact +0001620 +0001680 7 23 12500
a contact +0001620 +0001680 29 26 12500
a contact +0001620 +0001680 27 24 12500
a contact +0001620 +0001680 26 29 12500
a contact +0001620 +0001680 24 27 12500
a contact +0001620 +0001680 14 32 12500
a contact +0001620 +0001663 22 32 12500
a contact +0001680 +0001736 29 26 12500
a contact +0001680 +0001736 27 24 12500
a contact +0001680 +0001736 26 29 12500
a contact +0001680 +0001736 24 27 12500
a contact +0001680 +0001740 14 32 12500
a contact +0001689 +0001740 8 23 12500
a contact +0001740 +0001800 8 23 12500
a contact +0001756 +0001800 6 32 12500
a contact +0001800 +0001860 8 23 12500
a contact +0001800 +0001860 6 32 12500
a contact +0001860 +0001920 8 23 12500
a contact +0001860 +0001920 6 32 12500
a contact +0001860 +0001920 37 25 12500
a contact +0001860 +0001920 23 35 12500
a contact +0001860 +0001920 35 23 12500
a contact +0001860 +0001920 25 37 12500
a contact +0001920 +0001964 6 32 12500
a contact +0001920 +0001980 37 25 12500
a contact +0001920 +0001980 23 35 12500
a contact +0001920 +0001980 35 23 12500
a contact +0001920 +0001980 25 37 12500
a contact +0001980 +0002040 37 25 12500
a contact +0001980 +0002040 23 35 12500
a contact +0001980 +0002040 35 23 12500
a contact +0001980 +0002040 25 37 12500
a contact +0001980 +0002040 3 36 12500
a contact +0002040 +0002090 37 25 12500
a contact +0002040 +0002090 23 35 12500
a contact +0002040 +0002090 35 23 12500
a contact +0002040 +0002090 25 37 12500
a contact +0002040 +0002095 3 36 12500
a contact +0002040 +0002100 1 35 12500
a contact +0002100 +0002160 1 35 12500
a contact +0002160 +0002220 1 35 12500
a contact +0002187 +0002220 16 28 12500
a contact +0002220 +0002267 1 35 12500
a contact +0002220 +0002280 16 28 12500
a contact +0002220 +0002280 9 23 12500
a contact +0002220 +0002280 33 36 12500
a contact +0002220 +0002280 31 38 12500
a contact +0002220 +0002280 36 33 12500
a contact +0002220 +0002280 38 31 12500
a contact +0002280 +0002340 16 28 12500
a contact +0002280 +0002340 9 23 12500
a contact +0002280 +0002340 33 36 12500
a contact +0002280 +0002340 31 38 12500
a contact +0002280 +0002340 36 33 12500
a contact +0002280 +0002340 38 31 12500
a contact +0002340 +0002380 16 28 12500
a contact +0002340 +0002400 9 23 12500
a contact +0002340 +0002400 33 36 12500
a contact +0002340 +0002400 31 38 12500
a contact +0002340 +0002400 36 33 12500
a contact +0002340 +0002400 38 31 12500
a contact +0002345 +0002400 21 30 12500
a contact +0002400 +0002445 33 36 12500
a contact +0002400 +0002445 31 38 12500
a contact +0002400 +0002445 36 33 12500
a contact +0002400 +0002445 38 31 12500
a contact +0002400 +0002460 21 30 12500
a contact +0002460 +0002520 21 30 12500
a contact +0002467 +0002520 11 23 12500
a contact +0002473 +0002520 20 28 12500
a contact +0002520 +0002565 21 30 12500
a contact +0002520 +0002580 11 23 12500
a contact +0002520 +0002580 20 28 12500
a contact +0002521 +0002580 5 25 12500
a contact +0002546 +0002580 14 26 12500
a contact +0002580 +0002640 11 23 12500
a contact +0002580 +0002640 20 28 12500
a contact +0002580 +0002640 5 25 12500
a contact +0002580 +0002640 14 26 12500
a contact +0002580 +0002640 27 34 12500
a contact +0002580 +0002640 29 32 12500
a contact +0002580 +0002640 34 27 12500
a contact +0002580 +0002640 32 29 12500
a contact +0002606 +0002640 22 26 12500
a contact +0002640 +0002689 11 23 12500
a contact +0002640 +0002700 20 28 12500
a contact +0002640 +0002700 5 25 12500
a contact +0002640 +0002700 14 26 12500
a contact +0002640 +0002700 27 34 12500
a contact +0002640 +0002700 29 32 12500
a contact +0002640 +0002700 34 27 12500
a contact +0002640 +0002700 32 29 12500
a contact +0002640 +0002700 22 26 12500
a contact +0002658 +0002700 28 39 12500
a contact +0002700 +0002734 5 25 12500
a contact +0002700 +0002742 14 26 12500
a contact +0002700 +0002760 27 34 12500
a contact +0002700 +0002760 29 32 12500
a contact +0002700 +0002760 34 27 12500
a contact +0002700 +0002760 32 29 12500
a contact +0002700 +0002760 22 26 12500
a contact +0002700 +0002760 28 39 12500
a contact +0002722 +0002760 17 23 12500
a contact +0002760 +0002800 27 34 12500
a contact +0002760 +0002800 29 32 12500
a contact +0002760 +0002800 34 27 12500
a contact +0002760 +0002800 32 29 12500
a contact +0002760 +0002820 17 23 12500
a contact +0002820 +0002880 17 23 12500
a contact +0002822 +0002880 10 31 12500
a contact +0002880 +0002917 17 23 12500
a contact +0002880 +0002940 10 31 12500
a contact +0002940 +0003000 10 31 12500
a contact +0002940 +0003000 28 25 12500
a contact +0002940 +0003000 30 23 12500
a contact +0002940 +0003000 23 30 12500
a contact +0002940 +0003000 25 28 12500
a contact +0002953 +0003000 7 26 12500
a contact +0003000 +0003060 28 25 12500
a contact +0003000 +0003060 30 23 12500
a contact +0003000 +0003060 23 30 12500
a contact +0003000 +0003060 25 28 12500
a contact +0003000 +0003060 7 26 12500
a contact +0003060 +0003120 28 25 12500
a contact +0003060 +0003120 30 23 12500
a contact +0003060 +0003120 23 30 12500
a contact +0003060 +0003120 25 28 12500
a contact +0003060 +0003120 7 26 12500
a contact +0003120 +0003154 28 25 12500
a contact +0003120 +0003154 30 23 12500
a contact +0003120 +0003154 23 30 12500
a contact +0003120 +0003154 25 28 12500
a contact +0003120 +0003180 7 26 12500
a contact +0003188 +0003240 8 26 12500
a contact +0003240 +0003300 8 26 12500
a contact +0003270 +0003300 36 24 12500
a contact +0003270 +0003300 38 26 12500
a contact +0003300 +0003360 8 26 12500
a contact +0003300 +0003360 36 24 12500
a contact +0003300 +0003360 38 26 12500
a contact +0003300 +0003360 24 36 12500
a contact +0003300 +0003360 26 38 12500
a contact +0003360 +0003398 8 26 12500
a contact +0003360 +0003420 36 24 12500
a contact +0003360 +0003420 38 26 12500
a contact +0003360 +0003420 24 36 12500
a contact +0003360 +0003420 26 38 12500
a contact +0003420 +0003480 36 24 12500
a contact +0003420 +0003480 38 26 12500
a contact +0003420 +0003480 24 36 12500
a contact +0003420 +0003480 26 38 12500
a contact +0003540 +0003600 12 31 12500
a contact +0003540 +0003600 1 38 12500
a contact +0003600 +0003660 12 31 12500
a contact +0003600 +0003660 1 38 12500
a contact +0003625 +0003660 37 34 12500
a contact +0003625 +0003660 34 37 12500
a contact +0003625 +0003660 35 32 12500
a contact +0003625 +0003660 32 35 12500
a contact +0003660 +0003720 12 31 12500
a contact +0003660 +0003719 1 38 12500
a contact +0003660 +0003720 37 34 12500
a contact +0003660 +0003720 34 37 12500
a contact +0003660 +0003720 35 32 12500
a contact +0003660 +0003720 32 35 12500
a contact +0003720 +0003780 37 34 12500
a contact +0003720 +0003780 34 37 12500
a contact +0003720 +0003780 35 32 12500
a contact +0003720 +0003780 32 35 12500
a contact +0003720 +0003780 9 26 12500
a contact +0003780 +0003840 37 34 12500
a contact +0003780 +0003840 34 37 12500
a contact +0003780 +0003840 35 32 12500
a contact +0003780 +0003840 32 35 12500
a contact +0003780 +0003840 9 26 12500
a contact +0003810 +0003840 21 29 12500
a contact +0003840 +0003878 9 26 12500
a contact +0003840 +0003900 21 29 12500
a contact +0003900 +0003960 21 29 12500
a contact +0003960 +0004020 21 29 12500
a contact +0003960 +0004020 11 26 12500
a contact +0003972 +0004020 20 27 12500
a contact +0003980 +0004020 33 30 12500
a contact +0003980 +0004020 28 31 12500
a contact +0003980 +0004020 30 33 12500
a contact +0003980 +0004020 31 28 12500
a contact +0004020 +0004054 21 29 12500
a contact +0004020 +0004080 11 26 12500
a contact +0004020 +0004080 20 27 12500
a contact +0004020 +0004080 33 30 12500
a contact +0004020 +0004080 28 31 12500
a contact +0004020 +0004080 30 33 12500
a contact +0004020 +0004080 31 28 12500
a contact +0004020 +0004080 14 25 12500
a contact +0004020 +0004080 5 24 12500
a contact +0004047 +0004080 22 25 12500
a contact +0004080 +0004140 11 26 12500
a contact +0004080 +0004140 20 27 12500
a contact +0004080 +0004140 33 30 12500
a contact +0004080 +0004140 28 31 12500
a contact +0004080 +0004140 30 33 12500
a contact +0004080 +0004140 31 28 12500
a contact +0004080 +0004140 14 25 12500
a contact +0004080 +0004140 5 24 12500
a contact +0004080 +0004140 22 25 12500
a contact +0004082 +0004140 27 39 12500
a contact +0004140 +0004179 11 26 12500
a contact +0004140 +0004179 20 27 12500
a contact +0004140 +0004200 33 30 12500
a contact +0004140 +0004200 28 31 12500
a contact +0004140 +0004200 30 33 12500
a contact +0004140 +0004200 31 28 12500
a contact +0004140 +0004200 14 25 12500
a contact +0004140 +0004200 5 24 12500
a contact +0004140 +0004200 22 25 12500
a contact +0004140 +0004200 27 39 12500
a contact +0004141 +0004200 2 24 12500
a contact +0004200 +0004244 14 25 12500
a contact +0004200 +0004260 22 25 12500
a contact +0004200 +0004260 27 39 12500
a contact +0004200 +0004242 2 24 12500
a contact +0004228 +0004260 17 26 12500
a contact +0004260 +0004292 22 25 12500
a contact +0004260 +0004312 27 39 12500
a contact +0004260 +0004320 17 26 12500
a contact +0004320 +0004359 17 26 12500
a contact +0004334 +0004380 24 27 12500
a contact +0004334 +0004380 29 26 12500
a contact +0004334 +0004380 27 24 12500
a contact +0004334 +0004380 26 29 12500
a contact +0004380 +0004440 24 27 12500
a contact +0004380 +0004440 29 26 12500
a contact +0004380 +0004440 27 24 12500
a contact +0004380 +0004440 26 29 12500
a contact +0004440 +0004500 24 27 12500
a contact +0004440 +0004500 29 26 12500
a contact +0004440 +0004500 27 24 12500
a contact +0004440 +0004500 26 29 12500
a contact +0004456 +0004500 7 25 12500
a contact +0004500 +0004560 24 27 12500
a contact +0004500 +0004560 29 26 12500
a contact +0004500 +0004560 27 24 12500
a contact +0004500 +0004560 26 29 12500
a contact +0004500 +0004560 7 25 12500
a contact +0004560 +0004620 7 25 12500
a contact +0004620 +0004659 7 25 12500
a contact +0004688 +0004740 23 35 12500
a contact +0004688 +0004740 35 23 12500
a contact +0004688 +0004740 25 37 12500
a contact +0004688 +0004740 37 25 12500
a contact +0004740 +0004800 23 35 12500
a contact +0004740 +0004800 35 23 12500
a contact +0004740 +0004800 25 37 12500
a contact +0004740 +0004800 37 25 12500
a contact +0004740 +0004800 8 25 12500
a contact +0004800 +0004860 23 35 12500
a contact +0004800 +0004860 35 23 12500
a contact +0004800 +0004860 25 37 12500
a contact +0004800 +0004860 37 25 12500
a contact +0004800 +0004860 8 37 12500
a contact +0004860 +0004920 23 35 12500
a contact +0004860 +0004920 35 23 12500
a contact +0004860 +0004920 25 37 12500
a contact +0004860 +0004920 37 25 12500
a contact +0004860 +0004920 8 37 12500
a contact +0004920 +0004973 8 37 12500
a contact +0004986 +0005040 12 34 12500
a contact +0005040 +0005100 12 34 12500
a contact +0005043 +0005100 36 33 12500
a contact +0005043 +0005100 33 36 12500
a contact +0005043 +0005100 31 38 12500
a contact +0005043 +0005100 38 31 12500
a contact +0005100 +0005160 12 34 12500
a contact +0005100 +0005160 36 33 12500
a contact +0005100 +0005160 33 36 12500
a contact +0005100 +0005160 31 38 12500
a contact +0005100 +0005160 38 31 12500
a contact +0005160 +0005220 12 34 12500
a contact +0005160 +0005220 36 33 12500
a contact +0005160 +0005220 33 36 12500
a contact +0005160 +0005220 31 38 12500
a contact +0005160 +0005220 38 31 12500
a contact +0005220 +0005280 36 33 12500
a contact +0005220 +0005280 33 36 12500
a contact +0005220 +0005280 31 38 12500
a contact +0005220 +0005280 38 31 12500
a contact +0005220 +0005280 9 25 12500
a contact +0005280 +0005340 9 25 12500
a contact +0005340 +0005400 21 28 12500
a contact +0005400 +0005460 21 28 12500
a contact +0005400 +0005460 29 32 12500
a contact +0005400 +0005460 34 27 12500
a contact +0005400 +0005460 32 29 12500
a contact +0005400 +0005460 27 34 12500
a contact +0005428 +0005460 11 25 12500
a contact +0005460 +0005496 21 28 12500
a contact +0005460 +0005520 29 32 12500
a contact +0005460 +0005520 34 27 12500
a contact +0005460 +0005520 32 29 12500
a contact +0005460 +0005520 27 34 12500
a contact +0005460 +0005520 11 25 12500
a contact +0005520 +0005580 29 32 12500
a contact +0005520 +0005580 34 27 12500
a contact +0005520 +0005580 32 29 12500
a contact +0005520 +0005580 27 34 12500
a contact +0005520 +0005580 11 25 12500
a contact +0005520 +0005580 5 23 12500
a contact +0005520 +0005580 14 24 12500
a contact +0005542 +0005580 22 24 12500
a contact +0005580 +0005635 29 32 12500
a contact +0005580 +0005635 34 27 12500
a contact +0005580 +0005635 32 29 12500
a contact +0005580 +0005635 27 34 12500
a contact +0005580 +0005640 11 25 12500
a contact +0005580 +0005640 5 23 12500
a contact +0005580 +0005640 14 24 12500
a contact +0005580 +0005640 22 24 12500
a contact +0005580 +0005640 30 39 12500
a contact +0005593 +0005640 2 23 12500
a contact +0005640 +0005694 14 24 12500
a contact +0005640 +0005700 22 24 12500
a contact +0005640 +0005700 30 39 12500
a contact +0005640 +0005700 2 23 12500
a contact +0005700 +0005753 22 24 12500
a contact +0005700 +0005760 30 39 12500
a contact +0005700 +0005760 2 23 12500
a contact +0005721 +0005760 18 24 12500
a contact +0005760 +0005797 30 39 12500
a contact +0005760 +0005820 18 24 12500
a contact +0005760 +0005820 28 25 12500
a contact +0005760 +0005820 25 28 12500
a contact +0005760 +0005820 23 30 12500
a contact +0005760 +0005820 30 23 12500
a contact +0005820 +0005880 18 24 12500
a contact +0005820 +0005880 28 25 12500
a contact +0005820 +0005880 25 28 12500
a contact +0005820 +0005880 23 30 12500
a contact +0005820 +0005880 30 23 12500
a contact +0005880 +0005926 18 24 12500
a contact +0005880 +0005940 28 25 12500
a contact +0005880 +0005940 25 28 12500
a contact +0005880 +0005940 23 30 12500
a contact +0005880 +0005940 30 23 12500
a contact +0005940 +0005990 28 25 12500
a contact +0005940 +0005990 25 28 12500
a contact +0005940 +0005990 23 30 12500
a contact +0005940 +0005990 30 23 12500
a contact +0006120 +0006180 38 26 12500
a contact +0006120 +0006180 26 38 12500
a contact +0006120 +0006180 36 24 12500
a contact +0006120 +0006180 24 36 12500
a contact +0006180 +0006240 38 26 12500
a contact +0006180 +0006240 26 38 12500
a contact +0006180 +0006240 36 24 12500
a contact +0006180 +0006240 24 36 12500
a contact +0006240 +0006300 38 26 12500
a contact +0006240 +0006300 26 38 12500
a contact +0006240 +0006300 36 24 12500
a contact +0006240 +0006300 24 36 12500
a contact +0006245 +0006300 8 36 12500
a contact +0006300 +0006344 38 26 12500
a contact +0006300 +0006344 26 38 12500
a contact +0006300 +0006344 36 24 12500
a contact +0006300 +0006344 24 36 12500
a contact +0006300 +0006360 8 36 12500
a contact +0006360 +0006420 8 36 12500
a contact +0006420 +0006480 8 36 12500
a contact +0006480 +0006540 37 34 12500
a contact +0006480 +0006540 32 35 12500
a contact +0006480 +0006540 35 32 12500
a contact +0006480 +0006540 34 37 12500
a contact +0006501 +0006540 12 33 12500
a contact +0006540 +0006600 37 34 12500
a contact +0006540 +0006600 32 35 12500
a contact +0006540 +0006600 35 32 12500
a contact +0006540 +0006600 34 37 12500
a contact +0006540 +0006600 12 33 12500
a contact +0006600 +0006660 37 34 12500
a contact +0006600 +0006660 32 35 12500
a contact +0006600 +0006660 35 32 12500
a contact +0006600 +0006660 34 37 12500
a contact +0006600 +0006660 12 33 12500
a contact +0006660 +0006699 37 34 12500
a contact +0006660 +0006699 32 35 12500
a contact +0006660 +0006699 35 32 12500
a contact +0006660 +0006699 34 37 12500
a contact +0006720 +0006780 9 24 12500
a contact +0006746 +0006780 4 27 12500
a contact +0006780 +0006840 9 24 12500
a contact +0006780 +0006840 4 27 12500
a contact +0006840 +0006874 4 27 12500
a contact +0006840 +0006900 33 30 12500
a contact +0006840 +0006900 31 28 12500
a contact +0006840 +0006900 28 31 12500
a contact +0006840 +0006900 30 33 12500
a contact +0006900 +0006960 33 30 12500
a contact +0006900 +0006960 31 28 12500
a contact +0006900 +0006960 28 31 12500
a contact +0006900 +0006960 30 33 12500
a contact +0006908 +0006960 11 24 12500
a contact +0006960 +0007020 33 30 12500
a contact +0006960 +0007020 31 28 12500
a contact +0006960 +0007020 28 31 12500
a contact +0006960 +0007020 30 33 12500
a contact +0006960 +0007020 11 24 12500
a contact +0006961 +0007020 10 23 12500
a contact +0007020 +0007053 33 30 12500
a contact +0007020 +0007053 31 28 12500
a contact +0007020 +0007053 28 31 12500
a contact +0007020 +0007053 30 33 12500
a contact +0007020 +0007080 11 24 12500
a contact +0007020 +0007080 10 23 12500
a contact +0007020 +0007080 5 26 12500
a contact +0007080 +0007140 11 24 12500
a contact +0007080 +0007140 10 23 12500
a contact +0007080 +0007140 29 39 12500
a contact +0007080 +0007140 2 26 12500
a contact +0007140 +0007200 29 39 12500
a contact +0007140 +0007200 2 26 12500
a contact +0007140 +0007200 2 29 12500
a contact +0007170 +0007200 24 27 12500
a contact +0007170 +0007200 29 26 12500
a contact +0007170 +0007200 26 29 12500
a contact +0007170 +0007200 27 24 12500
a contact +0007200 +0007258 29 39 12500
a contact +0007200 +0007260 2 26 12500
a contact +0007200 +0007260 2 29 12500
a contact +0007200 +0007260 24 27 12500
a contact +0007200 +0007260 29 26 12500
a contact +0007200 +0007260 26 29 12500
a contact +0007200 +0007260 27 24 12500
a contact +0007200 +0007260 18 23 12500
a contact +0007260 +0007313 2 29 12500
a contact +0007260 +0007320 24 27 12500
a contact +0007260 +0007320 29 26 12500
a contact +0007260 +0007320 26 29 12500
a contact +0007260 +0007320 27 24 12500
a contact +0007260 +0007320 18 23 12500
a contact +0007320 +0007380 24 27 12500
a contact +0007320 +0007380 29 26 12500
a contact +0007320 +0007380 26 29 12500
a contact +0007320 +0007380 27 24 12500
a contact +0007320 +0007380 18 23 12500
a contact +0007380 +0007423 18 23 12500
a contact +0007383 +0007440 17 27 12500
a contact +0007440 +0007500 17 27 12500
a contact +0007524 +0007560 37 25 12500
a contact +0007524 +0007560 23 35 12500
a contact +0007524 +0007560 25 37 12500
a contact +0007524 +0007560 35 23 12500
a contact +0007560 +0007620 37 25 12500
a contact +0007560 +0007620 23 35 12500
a contact +0007560 +0007620 25 37 12500
a contact +0007560 +0007620 35 23 12500
a contact +0007620 +0007680 37 25 12500
a contact +0007620 +0007680 23 35 12500
a contact +0007620 +0007680 25 37 12500
a contact +0007620 +0007680 35 23 12500
a contact +0007680 +0007740 37 25 12500
a contact +0007680 +0007740 23 35 12500
a contact +0007680 +0007740 25 37 12500
a contact +0007680 +0007740 35 23 12500
a contact +0007740 +0007800 8 35 12500
a contact +0007800 +0007860 8 35 12500
a contact +0007860 +0007920 8 35 12500
a contact +0007879 +0007920 38 31 12500
a contact +0007879 +0007920 31 38 12500
a contact +0007879 +0007920 36 33 12500
a contact +0007879 +0007920 33 36 12500
a contact +0007920 +0007964 8 35 12500
a contact +0007920 +0007980 38 31 12500
a contact +0007920 +0007980 31 38 12500
a contact +0007920 +0007980 36 33 12500
a contact +0007920 +0007980 33 36 12500
a contact +0007980 +0008040 38 31 12500
a contact +0007980 +0008040 31 38 12500
a contact +0007980 +0008040 36 33 12500
a contact +0007980 +0008040 33 36 12500
a contact +0008040 +0008100 38 31 12500
a contact +0008040 +0008100 31 38 12500
a contact +0008040 +0008100 36 33 12500
a contact +0008040 +0008100 33 36 12500
a contact +0008168 +0008220 4 30 12500
a contact +0008184 +0008220 9 23 12500
a contact +0008220 +0008280 4 30 12500
a contact +0008220 +0008280 9 23 12500
a contact +0008234 +0008280 27 34 12500
a contact +0008234 +0008280 34 27 12500
a contact +0008234 +0008280 29 32 12500
a contact +0008234 +0008280 32 29 12500
a contact +0008280 +0008340 4 30 12500
a contact +0008280 +0008340 9 23 12500
a contact +0008280 +0008340 27 34 12500
a contact +0008280 +0008340 34 27 12500
a contact +0008280 +0008340 29 32 12500
a contact +0008280 +0008340 32 29 12500
a contact +0008340 +0008400 4 30 12500
a contact +0008340 +0008400 27 34 12500
a contact +0008340 +0008400 34 27 12500
a contact +0008340 +0008400 29 32 12500
a contact +0008340 +0008400 32 29 12500
a contact +0008400 +0008460 27 34 12500
a contact +0008400 +0008460 34 27 12500
a contact +0008400 +0008460 29 32 12500
a contact +0008400 +0008460 32 29 12500
a contact +0008400 +0008460 11 23 12500
a contact +0008415 +0008460 10 26 12500
a contact +0008460 +0008520 11 23 12500
a contact +0008460 +0008520 10 26 12500
a contact +0008520 +0008580 11 23 12500
a contact +0008520 +0008580 10 26 12500
a contact +0008529 +0008580 2 25 12500
a contact +0008580 +0008632 11 23 12500
a contact +0008580 +0008640 10 26 12500
a contact +0008580 +0008640 2 25 12500
a contact +0008580 +0008640 2 28 12500
a contact +0008588 +0008640 23 30 12500
a contact +0008588 +0008640 25 28 12500
a contact +0008588 +0008640 28 25 12500
a contact +0008588 +0008640 30 23 12500
a contact +0008594 +0008640 15 33 12500
a contact +0008640 +0008700 2 25 12500
a contact +0008640 +0008700 2 28 12500
a contact +0008640 +0008700 23 30 12500
a contact +0008640 +0008700 25 28 12500
a contact +0008640 +0008700 28 25 12500
a contact +0008640 +0008700 30 23 12500
a contact +0008640 +0008700 15 33 12500
a contact +0008700 +0008760 2 25 12500
a contact +0008700 +0008760 2 28 12500
a contact +0008700 +0008760 23 30 12500
a contact +0008700 +0008760 25 28 12500
a contact +0008700 +0008760 28 25 12500
a contact +0008700 +0008760 30 23 12500
a contact +0008700 +0008760 18 26 12500
a contact +0008760 +0008813 2 28 12500
a contact +0008760 +0008820 23 30 12500
a contact +0008760 +0008820 25 28 12500
a contact +0008760 +0008820 28 25 12500
a contact +0008760 +0008820 30 23 12500
a contact +0008760 +0008820 18 26 12500
a contact +0008760 +0008812 25 39 12500
a contact +0008820 +0008880 18 26 12500
a contact +0008828 +0008880 17 30 12500
a contact +0008880 +0008940 17 30 12500
a contact +0008940 +0009000 17 30 12500
a contact +0008942 +0009000 38 26 12500
a contact +0008942 +0009000 36 24 12500
a contact +0008942 +0009000 26 38 12500
a contact +0008942 +0009000 24 36 12500
a contact +0009000 +0009060 38 26 12500
a contact +0009000 +0009060 36 24 12500
a contact +0009000 +0009060 26 38 12500
a contact +0009000 +0009060 24 36 12500
a contact +0009060 +0009120 38 26 12500
a contact +0009060 +0009120 36 24 12500
a contact +0009060 +0009120 26 38 12500
a contact +0009060 +0009120 24 36 12500
a contact +0009120 +0009180 38 26 12500
a contact +0009120 +0009180 36 24 12500
a contact +0009120 +0009180 26 38 12500
a contact +0009120 +0009180 24 36 12500
a contact +0009240 +0009300 8 38 12500
a contact +0009300 +0009360 8 38 12500
a contact +0009300 +0009360 32 35 12500
a contact +0009300 +0009360 34 37 12500
a contact +0009300 +0009360 35 32 12500
a contact +0009300 +0009360 37 34 12500
a contact +0009360 +0009410 8 38 12500
a contact +0009360 +0009420 32 35 12500
a contact +0009360 +0009420 34 37 12500
a contact +0009360 +0009420 35 32 12500
a contact +0009360 +0009420 37 34 12500
a contact +0009420 +0009480 32 35 12500
a contact +0009420 +0009480 34 37 12500
a contact +0009420 +0009480 35 32 12500
a contact +0009420 +0009480 37 34 12500
a contact +0009480 +0009535 32 35 12500
a contact +0009480 +0009535 34 37 12500
a contact +0009480 +0009535 35 32 12500
a contact +0009480 +0009535 37 34 12500
a contact +0009660 +0009720 4 29 12500
a contact +0009660 +0009720 33 30 12500
a contact +0009660 +0009720 3 32 12500
a contact +0009660 +0009720 30 33 12500
a contact +0009660 +0009720 28 31 12500
a contact +0009660 +0009720 31 28 12500
a contact +0009662 +0009720 9 26 12500
a contact +0009670 +0009720 13 29 12500
a contact +0009720 +0009780 4 29 12500
a contact +0009720 +0009780 33 30 12500
a contact +0009720 +0009780 3 32 12500
a contact +0009720 +0009780 30 33 12500
a contact +0009720 +0009780 28 31 12500
a contact +0009720 +0009780 31 28 12500
a contact +0009720 +0009780 9 26 12500
a contact +0009720 +0009780 13 29 12500
a contact +0009780 +0009840 4 29 12500
a contact +0009780 +0009840 33 30 12500
a contact +0009780 +0009840 3 32 12500
a contact +0009780 +0009840 30 33 12500
a contact +0009780 +0009840 28 31 12500
a contact +0009780 +0009840 31 28 12500
a contact +0009780 +0009840 9 26 12500
a contact +0009780 +0009840 13 29 12500
a contact +0009840 +0009883 4 29 12500
a contact +0009840 +0009889 33 30 12500
a contact +0009840 +0009870 3 32 12500
a contact +0009840 +0009889 30 33 12500
a contact +0009840 +0009889 28 31 12500
a contact +0009840 +0009889 31 28 12500
a contact +0009900 +0009960 11 26 12500
a contact +0009919 +0009960 10 25 12500
a contact +0009960 +0010020 11 26 12500
a contact +0009960 +0010020 10 25 12500
a contact +0010020 +0010080 11 26 12500
a contact +0010020 +0010080 10 25 12500
a contact +0010020 +0010080 27 24 12500
a contact +0010020 +0010080 24 27 12500
a contact +0010020 +0010080 26 29 12500
a contact +0010020 +0010080 29 26 12500
a contact +0010020 +0010080 2 24 12500
a contact +0010020 +0010080 15 32 12500
a contact +0010080 +0010116 10 25 12500
a contact +0010080 +0010140 27 24 12500
a contact +0010080 +0010140 24 27 12500
a contact +0010080 +0010140 26 29 12500
a contact +0010080 +0010140 29 26 12500
a contact +0010080 +0010140 2 24 12500
a contact +0010080 +0010140 15 32 12500
a contact +0010080 +0010140 2 27 12500
a contact +0010140 +0010200 27 24 12500
a contact +0010140 +0010200 24 27 12500
a contact +0010140 +0010200 26 29 12500
a contact +0010140 +0010200 29 26 12500
a contact +0010140 +0010200 2 24 12500
a contact +0010140 +0010200 15 32 12500
a contact +0010140 +0010200 2 27 12500
a contact +0010159 +0010200 24 39 12500
a contact +0010200 +0010244 27 24 12500
a contact +0010200 +0010244 24 27 12500
a contact +0010200 +0010244 26 29 12500
a contact +0010200 +0010244 29 26 12500
a contact +0010200 +0010251 2 24 12500
a contact +0010200 +0010258 15 32 12500
a contact +0010200 +0010260 2 27 12500
a contact +0010200 +0010260 24 39 12500
a contact +0010260 +0010296 2 27 12500
a contact +0010260 +0010320 24 39 12500
a contact +0010320 +0010366 24 39 12500
a contact +0010320 +0010380 17 29 12500
a contact +0010380 +0010440 17 29 12500
a contact +0010380 +0010440 25 37 12500
a contact +0010380 +0010440 37 25 12500
a contact +0010380 +0010440 23 35 12500
a contact +0010380 +0010440 35 23 12500
a contact +0010440 +0010500 17 29 12500
a contact +0010440 +0010500 25 37 12500
a contact +0010440 +0010500 37 25 12500
a contact +0010440 +0010500 23 35 12500
a contact +0010440 +0010500 35 23 12500
a contact +0010500 +0010560 25 37 12500
a contact +0010500 +0010560 37 25 12500
a contact +0010500 +0010560 23 35 12500
a contact +0010500 +0010560 35 23 12500
a contact +0010560 +0010598 25 37 12500
a contact +0010560 +0010598 37 25 12500
a contact +0010560 +0010598 23 35 12500
a contact +0010560 +0010598 35 23 12500
a contact +0010629 +0010680 7 37 12500
a contact +0010680 +0010740 7 37 12500
a contact +0010740 +0010800 7 37 12500
a contact +0010740 +0010800 36 33 12500
a contact +0010740 +0010800 38 31 12500
a contact +0010740 +0010800 31 38 12500
a contact +0010740 +0010800 33 36 12500
a contact +0010800 +0010833 7 37 12500
a contact +0010800 +0010860 36 33 12500
a contact +0010800 +0010860 38 31 12500
a contact +0010800 +0010860 31 38 12500
a contact +0010800 +0010860 33 36 12500
a contact +0010860 +0010920 36 33 12500
a contact +0010860 +0010920 38 31 12500
a contact +0010860 +0010920 31 38 12500
a contact +0010860 +0010920 33 36 12500
a contact +0010920 +0010953 36 33 12500
a contact +0010920 +0010953 38 31 12500
a contact +0010920 +0010953 31 38 12500
a contact +0010920 +0010953 33 36 12500
a contact +0011069 +0011100 34 27 12500
a contact +0011069 +0011100 32 29 12500
a contact +0011069 +0011100 27 34 12500
a contact +0011069 +0011100 29 32 12500
a contact +0011100 +0011160 34 27 12500
a contact +0011100 +0011160 32 29 12500
a contact +0011100 +0011160 27 34 12500
a contact +0011100 +0011160 29 32 12500
a contact +0011112 +0011160 13 28 12500
a contact +0011118 +0011160 3 31 12500
a contact +0011160 +0011220 34 27 12500
a contact +0011160 +0011220 32 29 12500
a contact +0011160 +0011220 27 34 12500
a contact +0011160 +0011220 29 32 12500
a contact +0011160 +0011220 13 28 12500
a contact +0011160 +0011220 3 31 12500
a contact +0011160 +0011220 9 25 12500
a contact +0011170 +0011220 4 28 12500
a contact +0011220 +0011280 34 27 12500
a contact +0011220 +0011280 32 29 12500
a contact +0011220 +0011280 27 34 12500
a contact +0011220 +0011280 29 32 12500
a contact +0011220 +0011280 13 28 12500
a contact +0011220 +0011280 3 31 12500
a contact +0011220 +0011280 9 25 12500
a contact +0011220 +0011280 4 28 12500
a contact +0011280 +0011340 13 28 12500
a contact +0011280 +0011340 3 31 12500
a contact +0011280 +0011340 9 25 12500
a contact +0011280 +0011322 4 28 12500
a contact +0011400 +0011460 11 25 12500
a contact +0011424 +0011460 28 25 12500
a contact +0011424 +0011460 23 30 12500
a contact +0011424 +0011460 25 28 12500
a contact +0011424 +0011460 30 23 12500
a contact +0011460 +0011520 11 25 12500
a contact +0011460 +0011520 28 25 12500
a contact +0011460 +0011520 23 30 12500
a contact +0011460 +0011520 25 28 12500
a contact +0011460 +0011520 30 23 12500
a contact +0011520 +0011551 11 25 12500
a contact +0011520 +0011580 28 25 12500
a contact +0011520 +0011580 23 30 12500
a contact +0011520 +0011580 25 28 12500
a contact +0011520 +0011580 30 23 12500
a contact +0011520 +0011580 15 31 12500
a contact +0011520 +0011580 2 23 12500
a contact +0011533 +0011580 11 28 12500
a contact +0011544 +0011580 2 30 12500
a contact +0011580 +0011640 28 25 12500
a contact +0011580 +0011640 23 30 12500
a contact +0011580 +0011640 25 28 12500
a contact +0011580 +0011640 30 23 12500
a contact +0011580 +0011640 15 31 12500
a contact +0011580 +0011640 2 23 12500
a contact +0011580 +0011640 11 28 12500
a contact +0011580 +0011640 2 30 12500
a contact +0011640 +0011700 15 31 12500
a contact +0011640 +0011700 2 23 12500
a contact +0011640 +0011700 11 28 12500
a contact +0011640 +0011700 2 30 12500
a contact +0011640 +0011700 23 39 12500
a contact +0011700 +0011760 2 30 12500
a contact +0011700 +0011760 23 39 12500
a contact +0011760 +0011820 23 39 12500
a contact +0011763 +0011820 17 28 12500
a contact +0011778 +0011820 26 38 12500
a contact +0011778 +0011820 38 26 12500
a contact +0011778 +0011820 36 24 12500
a contact +0011778 +0011820 24 36 12500
a contact +0011820 +0011867 23 39 12500
a contact +0011820 +0011880 17 28 12500
a contact +0011820 +0011880 26 38 12500
a contact +0011820 +0011880 38 26 12500
a contact +0011820 +0011880 36 24 12500
a contact +0011820 +0011880 24 36 12500
a contact +0011880 +0011940 17 28 12500
a contact +0011880 +0011940 26 38 12500
a contact +0011880 +0011940 38 26 12500
a contact +0011880 +0011940 36 24 12500
a contact +0011880 +0011940 24 36 12500
a contact +0011940 +0012000 17 28 12500
a contact +0011940 +0012000 26 38 12500
a contact +0011940 +0012000 38 26 12500
a contact +0011940 +0012000 36 24 12500
a contact +0011940 +0012000 24 36 12500
a contact +0012089 +0012120 7 36 12500
a contact +0012120 +0012180 7 36 12500
a contact +0012133 +0012180 37 34 12500
a contact +0012133 +0012180 32 35 12500
a contact +0012133 +0012180 35 32 12500
a contact +0012133 +0012180 34 37 12500
a contact +0012180 +0012240 7 36 12500
a contact +0012180 +0012240 37 34 12500
a contact +0012180 +0012240 32 35 12500
a contact +0012180 +0012240 35 32 12500
a contact +0012180 +0012240 34 37 12500
a contact +0012240 +0012300 7 36 12500
a contact +0012240 +0012300 37 34 12500
a contact +0012240 +0012300 32 35 12500
a contact +0012240 +0012300 35 32 12500
a contact +0012240 +0012300 34 37 12500
a contact +0012300 +0012335 7 36 12500
a contact +0012300 +0012360 37 34 12500
a contact +0012300 +0012360 32 35 12500
a contact +0012300 +0012360 35 32 12500
a contact +0012300 +0012360 34 37 12500
a contact +0012422 +0012480 15 25 12500
a contact +0012480 +0012540 15 25 12500
a contact +0012487 +0012540 30 33 12500
a contact +0012487 +0012540 33 30 12500
a contact +0012487 +0012540 31 28 12500
a contact +0012487 +0012540 28 31 12500
a contact +0012540 +0012600 15 25 12500
a contact +0012540 +0012600 30 33 12500
a contact +0012540 +0012600 33 30 12500
a contact +0012540 +0012600 31 28 12500
a contact +0012540 +0012600 28 31 12500
a contact +0012600 +0012650 15 25 12500
a contact +0012600 +0012660 30 33 12500
a contact +0012600 +0012660 33 30 12500
a contact +0012600 +0012660 31 28 12500
a contact +0012600 +0012660 28 31 12500
a contact +0012600 +0012660 13 27 12500
a contact +0012611 +0012660 9 24 12500
a contact +0012623 +0012660 3 34 12500
a contact +0012660 +0012720 30 33 12500
a contact +0012660 +0012720 33 30 12500
a contact +0012660 +0012720 31 28 12500
a contact +0012660 +0012720 28 31 12500
a contact +0012660 +0012720 13 27 12500
a contact +0012660 +0012720 9 24 12500
a contact +0012660 +0012720 3 34 12500
a contact +0012720 +0012780 13 27 12500
a contact +0012720 +0012780 9 24 12500
a contact +0012720 +0012780 3 34 12500
a contact +0012780 +0012828 13 27 12500
a contact +0012780 +0012840 9 24 12500
a contact +0012780 +0012811 3 34 12500
a contact +0012842 +0012900 24 27 12500
a contact +0012842 +0012900 27 24 12500
a contact +0012842 +0012900 26 29 12500
a contact +0012842 +0012900 29 26 12500
a contact +0012900 +0012960 24 27 12500
a contact +0012900 +0012960 27 24 12500
a contact +0012900 +0012960 26 29 12500
a contact +0012900 +0012960 29 26 12500
a contact +0012960 +0013020 24 27 12500
a contact +0012960 +0013020 27 24 12500
a contact +0012960 +0013020 26 29 12500
a contact +0012960 +0013020 29 26 12500
a contact +0012982 +0013020 11 27 12500
a contact +0013020 +0013080 24 27 12500
a contact +0013020 +0013080 27 24 12500
a contact +0013020 +0013080 26 29 12500
a contact +0013020 +0013080 29 26 12500
a contact +0013020 +0013080 11 27 12500
a contact +0013080 +0013140 11 27 12500
a contact +0013080 +0013140 2 29 12500
a contact +0013109 +0013140 26 39 12500
a contact +0013140 +0013200 11 27 12500
a contact +0013140 +0013200 2 29 12500
a contact +0013140 +0013200 26 39 12500
a contact +0013154 +0013200 5 29 12500
a contact +0013200 +0013233 2 29 12500
a contact +0013200 +0013260 26 39 12500
a contact +0013200 +0013240 5 29 12500
a contact +0013200 +0013260 23 35 12500
a contact +0013200 +0013260 35 23 12500
a contact +0013200 +0013260 25 37 12500
a contact +0013200 +0013260 37 25 12500
a contact +0013260 +0013320 26 39 12500
a contact +0013260 +0013320 23 35 12500
a contact +0013260 +0013320 35 23 12500
a contact +0013260 +0013320 25 37 12500
a contact +0013260 +0013320 37 25 12500
a contact +0013260 +0013320 20 26 12500
a contact +0013260 +0013320 17 27 12500
a contact +0013320 +0013380 23 35 12500
a contact +0013320 +0013380 35 23 12500
a contact +0013320 +0013380 25 37 12500
a contact +0013320 +0013380 37 25 12500
a contact +0013320 +0013380 20 26 12500
a contact +0013320 +0013380 17 27 12500
a contact +0013380 +0013434 23 35 12500
a contact +0013380 +0013434 35 23 12500
a contact +0013380 +0013434 25 37 12500
a contact +0013380 +0013434 37 25 12500
a contact +0013380 +0013440 20 26 12500
a contact +0013380 +0013440 17 27 12500
a contact +0013440 +0013483 17 27 12500
a contact +0013560 +0013620 31 38 12500
a contact +0013560 +0013620 38 31 12500
a contact +0013560 +0013620 33 36 12500
a contact +0013560 +0013620 36 33 12500
a contact +0013581 +0013620 7 35 12500
a contact +0013620 +0013680 31 38 12500
a contact +0013620 +0013680 38 31 12500
a contact +0013620 +0013680 33 36 12500
a contact +0013620 +0013680 36 33 12500
a contact +0013620 +0013680 7 35 12500
a contact +0013680 +0013740 31 38 12500
a contact +0013680 +0013740 38 31 12500
a contact +0013680 +0013740 33 36 12500
a contact +0013680 +0013740 36 33 12500
a contact +0013680 +0013740 7 35 12500
a contact +0013740 +0013788 31 38 12500
a contact +0013740 +0013788 38 31 12500
a contact +0013740 +0013788 33 36 12500
a contact +0013740 +0013788 36 33 12500
a contact +0013740 +0013798 7 35 12500
a contact +0013740 +0013800 19 35 12500
a contact +0013800 +0013860 19 35 12500
a contact +0013860 +0013920 19 35 12500
a contact +0013920 +0013980 15 24 12500
a contact +0013920 +0013980 29 32 12500
a contact +0013920 +0013980 27 34 12500
a contact +0013920 +0013980 34 27 12500
a contact +0013920 +0013980 32 29 12500
a contact +0013980 +0014040 15 24 12500
a contact +0013980 +0014040 29 32 12500
a contact +0013980 +0014040 27 34 12500
a contact +0013980 +0014040 34 27 12500
a contact +0013980 +0014040 32 29 12500
a contact +0014040 +0014100 15 24 12500
a contact +0014040 +0014100 29 32 12500
a contact +0014040 +0014100 27 34 12500
a contact +0014040 +0014100 34 27 12500
a contact +0014040 +0014100 32 29 12500
a contact +0014100 +0014133 15 24 12500
a contact +0014100 +0014143 29 32 12500
a contact +0014100 +0014143 27 34 12500
a contact +0014100 +0014143 34 27 12500
a contact +0014100 +0014143 32 29 12500
a contact +0014100 +0014160 9 23 12500
a contact +0014120 +0014160 13 30 12500
a contact +0014160 +0014220 9 23 12500
a contact +0014160 +0014220 13 30 12500
a contact +0014220 +0014280 9 23 12500
a contact +0014220 +0014270 13 30 12500
a contact +0014280 +0014331 9 23 12500
a contact +0014280 +0014340 23 30 12500
a contact +0014280 +0014340 30 23 12500
a contact +0014280 +0014340 25 28 12500
a contact +0014280 +0014340 28 25 12500
a contact +0014284 +0014340 12 29 12500
a contact +0014340 +0014400 23 30 12500
a contact +0014340 +0014400 30 23 12500
a contact +0014340 +0014400 25 28 12500
a contact +0014340 +0014400 28 25 12500
a contact +0014340 +0014400 12 29 12500
a contact +0014400 +0014460 23 30 12500
a contact +0014400 +0014460 30 23 12500
a contact +0014400 +0014460 25 28 12500
a contact +0014400 +0014460 28 25 12500
a contact +0014460 +0014498 23 30 12500
a contact +0014460 +0014498 30 23 12500
a contact +0014460 +0014498 25 28 12500
a contact +0014460 +0014498 28 25 12500
a contact +0014460 +0014520 11 30 12500
a contact +0014520 +0014580 11 30 12500
a contact +0014580 +0014640 11 30 12500
a contact +0014580 +0014640 2 28 12500
a contact +0014588 +0014640 5 28 12500
a contact +0014640 +0014691 11 30 12500
a contact +0014640 +0014686 2 28 12500
a contact +0014640 +0014700 5 28 12500
a contact +0014640 +0014700 36 24 12500
a contact +0014640 +0014700 38 26 12500
a contact +0014640 +0014700 24 36 12500
a contact +0014640 +0014700 26 38 12500
a contact +0014642 +0014700 25 39 12500
a contact +0014700 +0014751 5 28 12500
a contact +0014700 +0014760 36 24 12500
a contact +0014700 +0014760 38 26 12500
a contact +0014700 +0014760 24 36 12500
a contact +0014700 +0014760 26 38 12500
a contact +0014700 +0014753 25 39 12500
a contact +0014700 +0014760 20 25 12500
a contact +0014720 +0014760 17 30 12500
a contact +0014760 +0014820 36 24 12500
a contact +0014760 +0014820 38 26 12500
a contact +0014760 +0014820 24 36 12500
a contact +0014760 +0014820 26 38 12500
a contact +0014760 +0014820 20 25 12500
a contact +0014760 +0014820 17 30 12500
a contact +0014820 +0014852 36 24 12500
a contact +0014820 +0014852 38 26 12500
a contact +0014820 +0014852 24 36 12500
a contact +0014820 +0014852 26 38 12500
a contact +0014820 +0014880 20 25 12500
a contact +0014820 +0014880 17 30 12500
a contact +0014880 +0014940 20 25 12500
a contact +0014880 +0014940 17 30 12500
a contact +0014901 +0014940 18 38 12500
a contact +0014940 +0015000 18 38 12500
a contact +0014968 +0015000 32 35 12500
a contact +0014968 +0015000 34 37 12500
a contact +0014968 +0015000 35 32 12500
a contact +0014968 +0015000 37 34 12500
a contact +0015000 +0015049 18 38 12500
a contact +0015000 +0015060 32 35 12500
a contact +0015000 +0015060 34 37 12500
a contact +0015000 +0015060 35 32 12500
a contact +0015000 +0015060 37 34 12500
a contact +0015060 +0015120 32 35 12500
a contact +0015060 +0015120 34 37 12500
a contact +0015060 +0015120 35 32 12500
a contact +0015060 +0015120 37 34 12500
a contact +0015120 +0015180 32 35 12500
a contact +0015120 +0015180 34 37 12500
a contact +0015120 +0015180 35 32 12500
a contact +0015120 +0015180 37 34 12500
a contact +0015181 +0015240 19 38 12500
a contact +0015240 +0015300 19 38 12500
a contact +0015300 +0015360 19 38 12500
a contact +0015323 +0015360 31 28 12500
a contact +0015323 +0015360 30 33 12500
a contact +0015323 +0015360 33 30 12500
a contact +0015323 +0015360 28 31 12500
a contact +0015360 +0015420 19 38 12500
a contact +0015360 +0015420 31 28 12500
a contact +0015360 +0015420 30 33 12500
a contact +0015360 +0015420 33 30 12500
a contact +0015360 +0015420 28 31 12500
a contact +0015420 +0015480 31 28 12500
a contact +0015420 +0015480 30 33 12500
a contact +0015420 +0015480 33 30 12500
a contact +0015420 +0015480 28 31 12500
a contact +0015433 +0015480 15 23 12500
a contact +0015480 +0015540 31 28 12500
a contact +0015480 +0015540 30 33 12500
a contact +0015480 +0015540 33 30 12500
a contact +0015480 +0015540 28 31 12500
a contact +0015480 +0015540 15 23 12500
a contact +0015480 +0015540 1 29 12500
a contact +0015540 +0015600 1 29 12500
a contact +0015569 +0015600 9 26 12500
a contact +0015600 +0015643 1 29 12500
a contact +0015600 +0015660 9 26 12500
a contact +0015660 +0015720 9 26 12500
a contact +0015678 +0015720 29 26 12500
a contact +0015678 +0015720 26 29 12500
a contact +0015678 +0015720 27 24 12500
a contact +0015678 +0015720 24 27 12500
a contact +0015720 +0015780 9 26 12500
a contact +0015720 +0015780 29 26 12500
a contact +0015720 +0015780 26 29 12500
a contact +0015720 +0015780 27 24 12500
a contact +0015720 +0015780 24 27 12500
a contact +0015720 +0015780 9 29 12500
a contact +0015720 +0015780 12 28 12500
a contact +0015780 +0015812 9 26 12500
a contact +0015780 +0015840 29 26 12500
a contact +0015780 +0015840 26 29 12500
a contact +0015780 +0015840 27 24 12500
a contact +0015780 +0015840 24 27 12500
a contact +0015780 +0015840 9 29 12500
a contact +0015780 +0015840 12 28 12500
a contact +0015840 +0015900 29 26 12500
a contact +0015840 +0015900 26 29 12500
a contact +0015840 +0015900 27 24 12500
a contact +0015840 +0015900 24 27 12500
a contact +0015840 +0015880 9 29 12500
a contact +0015840 +0015900 12 28 12500
a contact +0015900 +0015955 12 28 12500
a contact +0015929 +0015960 11 29 12500
a contact +0015960 +0016020 11 29 12500
a contact +0016020 +0016080 11 29 12500
a contact +0016032 +0016080 37 25 12500
a contact +0016032 +0016080 25 37 12500
a contact +0016032 +0016080 35 23 12500
a contact +0016032 +0016080 23 35 12500
a contact +0016046 +0016080 5 27 12500
a contact +0016080 +0016140 11 29 12500
a contact +0016080 +0016140 37 25 12500
a contact +0016080 +0016140 25 37 12500
a contact +0016080 +0016140 35 23 12500
a contact +0016080 +0016140 23 35 12500
a contact +0016080 +0016140 5 27 12500
a contact +0016140 +0016173 11 29 12500
a contact +0016140 +0016200 37 25 12500
a contact +0016140 +0016200 25 37 12500
a contact +0016140 +0016200 35 23 12500
a contact +0016140 +0016200 23 35 12500
a contact +0016140 +0016200 5 27 12500
a contact +0016200 +0016260 37 25 12500
a contact +0016200 +0016260 25 37 12500
a contact +0016200 +0016260 35 23 12500
a contact +0016200 +0016260 23 35 12500
a contact +0016200 +0016242 5 27 12500
a contact +0016200 +0016260 21 26 12500
a contact +0016200 +0016260 20 24 12500
a contact +0016201 +0016260 17 29 12500
a contact +0016260 +0016320 21 26 12500
a contact +0016260 +0016320 20 24 12500
a contact +0016260 +0016320 17 29 12500
a contact +0016320 +0016362 21 26 12500
a contact +0016320 +0016380 20 24 12500
a contact +0016320 +0016380 17 29 12500
a contact +0016341 +0016380 18 37 12500
a contact +0016380 +0016440 17 29 12500
a contact +0016380 +0016440 18 37 12500
a contact +0016386 +0016440 38 31 12500
a contact +0016386 +0016440 31 38 12500
a contact +0016386 +0016440 33 36 12500
a contact +0016386 +0016440 36 33 12500
a contact +0016440 +0016500 18 37 12500
a contact +0016440 +0016500 38 31 12500
a contact +0016440 +0016500 31 38 12500
a contact +0016440 +0016500 33 36 12500
a contact +0016440 +0016500 36 33 12500
a contact +0016500 +0016560 18 37 12500
a contact +0016500 +0016560 38 31 12500
a contact +0016500 +0016560 31 38 12500
a contact +0016500 +0016560 33 36 12500
a contact +0016500 +0016560 36 33 12500
a contact +0016560 +0016620 38 31 12500
a contact +0016560 +0016620 31 38 12500
a contact +0016560 +0016620 33 36 12500
a contact +0016560 +0016620 36 33 12500
a contact +0016700 +0016740 19 37 12500
a contact +0016740 +0016800 19 37 12500
a contact +0016741 +0016800 32 29 12500
a contact +0016741 +0016800 29 32 12500
a contact +0016741 +0016800 27 34 12500
a contact +0016741 +0016800 34 27 12500
a contact +0016800 +0016858 19 37 12500
a contact +0016800 +0016860 32 29 12500
a contact +0016800 +0016860 29 32 12500
a contact +0016800 +0016860 27 34 12500
a contact +0016800 +0016860 34 27 12500
a contact +0016860 +0016920 32 29 12500
a contact +0016860 +0016920 29 32 12500
a contact +0016860 +0016920 27 34 12500
a contact +0016860 +0016920 34 27 12500
a contact +0016920 +0016979 32 29 12500
a contact +0016920 +0016979 29 32 12500
a contact +0016920 +0016979 27 34 12500
a contact +0016920 +0016979 34 27 12500
a contact +0016920 +0016980 1 28 12500
a contact +0016980 +0017040 1 28 12500
a contact +0017040 +0017100 1 28 12500
a contact +0017058 +0017100 9 25 12500
a contact +0017100 +0017149 1 28 12500
a contact +0017100 +0017160 9 25 12500
a contact +0017100 +0017160 25 28 12500
a contact +0017100 +0017160 28 25 12500
a contact +0017100 +0017160 30 23 12500
a contact +0017100 +0017160 23 30 12500
a contact +0017160 +0017220 9 25 12500
a contact +0017160 +0017220 25 28 12500
a contact +0017160 +0017220 28 25 12500
a contact +0017160 +0017220 30 23 12500
a contact +0017160 +0017220 23 30 12500
a contact +0017160 +0017220 9 28 12500
a contact +0017220 +0017278 9 25 12500
a contact +0017220 +0017280 25 28 12500
a contact +0017220 +0017280 28 25 12500
a contact +0017220 +0017280 30 23 12500
a contact +0017220 +0017280 23 30 12500
a contact +0017220 +0017280 9 28 12500
a contact +0017220 +0017280 12 27 12500
a contact +0017280 +0017334 25 28 12500
a contact +0017280 +0017334 28 25 12500
a contact +0017280 +0017334 30 23 12500
a contact +0017280 +0017334 23 30 12500
a contact +0017280 +0017340 9 28 12500
a contact +0017280 +0017340 12 27 12500
a contact +0017340 +0017385 9 28 12500
a contact +0017340 +0017400 12 27 12500
a contact +0017400 +0017433 12 27 12500
a contact +0017414 +0017460 11 28 12500
a contact +0017460 +0017520 11 28 12500
a contact +0017460 +0017520 26 38 12500
a contact +0017460 +0017520 36 24 12500
a contact +0017460 +0017520 38 26 12500
a contact +0017460 +0017520 24 36 12500
a contact +0017460 +0017520 4 25 12500
a contact +0017520 +0017580 11 28 12500
a contact +0017520 +0017580 26 38 12500
a contact +0017520 +0017580 36 24 12500
a contact +0017520 +0017580 38 26 12500
a contact +0017520 +0017580 24 36 12500
a contact +0017520 +0017580 5 30 12500
a contact +0017580 +0017640 11 28 12500
a contact +0017580 +0017640 26 38 12500
a contact +0017580 +0017640 36 24 12500
a contact +0017580 +0017640 38 26 12500
a contact +0017580 +0017640 24 36 12500
a contact +0017580 +0017640 5 30 12500
a contact +0017640 +0017688 26 38 12500
a contact +0017640 +0017688 36 24 12500
a contact +0017640 +0017688 38 26 12500
a contact +0017640 +0017688 24 36 12500
a contact +0017640 +0017700 5 30 12500
a contact +0017640 +0017700 21 25 12500
a contact +0017700 +0017760 21 25 12500
a contact +0017700 +0017760 17 28 12500
a contact +0017760 +0017820 21 25 12500
a contact +0017760 +0017820 17 28 12500
a contact +0017820 +0017870 21 25 12500
a contact +0017820 +0017880 17 28 12500
a contact +0017820 +0017880 32 35 12500
a contact +0017820 +0017880 35 32 12500
a contact +0017820 +0017880 37 34 12500
a contact +0017820 +0017880 34 37 12500
a contact +0017820 +0017880 18 36 12500
a contact +0017880 +0017927 17 28 12500
a contact +0017880 +0017940 32 35 12500
a contact +0017880 +0017940 35 32 12500
a contact +0017880 +0017940 37 34 12500
a contact +0017880 +0017940 34 37 12500
a contact +0017880 +0017940 18 36 12500
a contact +0017940 +0018000 32 35 12500
a contact +0017940 +0018000 35 32 12500
a contact +0017940 +0018000 37 34 12500
a contact +0017940 +0018000 34 37 12500
a contact +0017940 +0018000 18 36 12500
a contact +0018000 +0018042 32 35 12500
a contact +0018000 +0018042 35 32 12500
a contact +0018000 +0018042 37 34 12500
a contact +0018000 +0018042 34 37 12500
a contact +0018000 +0018057 18 36 12500
a contact +0018180 +0018240 28 31 12500
a contact +0018180 +0018240 30 33 12500
a contact +0018180 +0018240 31 28 12500
a contact +0018180 +0018240 33 30 12500
a contact +0018240 +0018300 28 31 12500
a contact +0018240 +0018300 30 33 12500
a contact +0018240 +0018300 31 28 12500
a contact +0018240 +0018300 33 30 12500
a contact +0018300 +0018360 28 31 12500
a contact +0018300 +0018360 30 33 12500
a contact +0018300 +0018360 31 28 12500
a contact +0018300 +0018360 33 30 12500
a contact +0018360 +0018397 28 31 12500
a contact +0018360 +0018397 30 33 12500
a contact +0018360 +0018397 31 28 12500
a contact +0018360 +0018397 33 30 12500
a contact +0018389 +0018420 1 27 12500
a contact +0018420 +0018480 1 27 12500
a contact +0018480 +0018540 1 27 12500
a contact +0018480 +0018524 3 25 12500
a contact +0018540 +0018600 1 27 12500
a contact +0018540 +0018600 26 29 12500
a contact +0018540 +0018600 29 26 12500
a contact +0018540 +0018600 24 27 12500
a contact +0018540 +0018600 27 24 12500
a contact +0018568 +0018600 9 24 12500
a contact +0018600 +0018660 26 29 12500
a contact +0018600 +0018660 29 26 12500
a contact +0018600 +0018660 24 27 12500
a contact +0018600 +0018660 27 24 12500
a contact +0018600 +0018660 9 24 12500
a contact +0018628 +0018660 9 27 12500
a contact +0018660 +0018720 26 29 12500
a contact +0018660 +0018720 29 26 12500
a contact +0018660 +0018720 24 27 12500
a contact +0018660 +0018720 27 24 12500
a contact +0018660 +0018718 9 24 12500
a contact +0018660 +0018720 9 27 12500
a contact +0018720 +0018752 26 29 12500
a contact +0018720 +0018752 29 26 12500
a contact +0018720 +0018752 24 27 12500
a contact +0018720 +0018752 27 24 12500
a contact +0018720 +0018780 9 27 12500
a contact +0018727 +0018780 12 30 12500
a contact +0018750 +0018780 13 24 12500
a contact +0018780 +0018840 9 27 12500
a contact +0018780 +0018840 12 30 12500
a contact +0018780 +0018840 13 24 12500
a contact +0018840 +0018872 9 27 12500
a contact +0018840 +0018900 13 24 12500
a contact +0018863 +0018900 4 24 12500
a contact +0018868 +0018900 25 37 12500
a contact +0018868 +0018900 37 25 12500
a contact +0018868 +0018900 35 23 12500
a contact +0018868 +0018900 23 35 12500
a contact +0018900 +0018958 13 24 12500
a contact +0018900 +0018960 4 24 12500
a contact +0018900 +0018960 25 37 12500
a contact +0018900 +0018960 37 25 12500
a contact +0018900 +0018960 35 23 12500
a contact +0018900 +0018960 23 35 12500
a contact +0018903 +0018960 11 27 12500
a contact +0018960 +0019020 4 24 12500
a contact +0018960 +0019020 25 37 12500
a contact +0018960 +0019020 37 25 12500
a contact +0018960 +0019020 35 23 12500
a contact +0018960 +0019020 23 35 12500
a contact +0018960 +0019020 11 27 12500
a contact +0018985 +0019020 5 29 12500
a contact +0019020 +0019080 4 24 12500
a contact +0019020 +0019080 25 37 12500
a contact +0019020 +0019080 37 25 12500
a contact +0019020 +0019080 35 23 12500
a contact +0019020 +0019080 23 35 12500
a contact +0019020 +0019080 11 27 12500
a contact +0019020 +0019080 5 29 12500
a contact +0019080 +0019133 11 27 12500
a contact +0019080 +0019140 5 29 12500
a contact +0019140 +0019200 5 29 12500
a contact +0019140 +0019200 21 24 12500
a contact +0019163 +0019200 17 27 12500
a contact +0019200 +0019260 21 24 12500
a contact +0019200 +0019260 17 27 12500
a contact +0019222 +0019260 33 36 12500
a contact +0019222 +0019260 38 31 12500
a contact +0019222 +0019260 36 33 12500
a contact +0019222 +0019260 31 38 12500
a contact +0019260 +0019320 21 24 12500
a contact +0019260 +0019320 17 27 12500
a contact +0019260 +0019320 33 36 12500
a contact +0019260 +0019320 38 31 12500
a contact +0019260 +0019320 36 33 12500
a contact +0019260 +0019320 31 38 12500
a contact +0019290 +0019320 16 26 12500
a contact +0019320 +0019380 17 27 12500
a contact +0019320 +0019380 33 36 12500
a contact +0019320 +0019380 38 31 12500
a contact +0019320 +0019380 36 33 12500
a contact +0019320 +0019380 31 38 12500
a contact +0019320 +0019380 16 26 12500
a contact +0019335 +0019380 18 35 12500
a contact +0019350 +0019380 19 30 12500
a contact +0019380 +0019440 33 36 12500
a contact +0019380 +0019440 38 31 12500
a contact +0019380 +0019440 36 33 12500
a contact +0019380 +0019440 31 38 12500
a contact +0019380 +0019440 16 26 12500
a contact +0019380 +0019440 18 35 12500
a contact +0019380 +0019440 19 30 12500
a contact +0019440 +0019498 16 26 12500
a contact +0019440 +0019491 18 35 12500
a contact +0019440 +0019479 19 30 12500
a contact +0019463 +0019500 22 35 12500
a contact +0019500 +0019560 22 35 12500
a contact +0019523 +0019560 14 35 12500
a contact +0019560 +0019620 22 35 12500
a contact +0019560 +0019620 14 35 12500
a contact +0019577 +0019620 27 34 12500
a contact +0019577 +0019620 32 29 12500
a contact +0019577 +0019620 34 27 12500
a contact +0019577 +0019620 29 32 12500
a contact +0019620 +0019680 22 35 12500
a contact +0019620 +0019674 14 35 12500
a contact +0019620 +0019680 27 34 12500
a contact +0019620 +0019680 32 29 12500
a contact +0019620 +0019680 34 27 12500
a contact +0019620 +0019680 29 32 12500
a contact +0019680 +0019740 27 34 12500
a contact +0019680 +0019740 32 29 12500
a contact +0019680 +0019740 34 27 12500
a contact +0019680 +0019740 29 32 12500
a contact +0019740 +0019800 27 34 12500
a contact +0019740 +0019800 32 29 12500
a contact +0019740 +0019800 34 27 12500
a contact +0019740 +0019800 29 32 12500
a contact +0019740 +0019792 8 30 12500
a contact +0019752 +0019800 6 35 12500
a contact +0019800 +0019860 6 35 12500
a contact +0019860 +0019920 3 24 12500
a contact +0019920 +0019980 3 24 12500
a contact +0019920 +0019980 1 30 12500
a contact +0019932 +0019980 28 25 12500
a contact +0019932 +0019980 25 28 12500
a contact +0019932 +0019980 23 30 12500
a contact +0019932 +0019980 30 23 12500
a contact +0019980 +0020040 3 24 12500
a contact +0019980 +0020040 1 30 12500
a contact +0019980 +0020040 28 25 12500
a contact +0019980 +0020040 25 28 12500
a contact +0019980 +0020040 23 30 12500
a contact +0019980 +0020040 30 23 12500
a contact +0020007 +0020040 1 23 12500
a contact +0020040 +0020079 3 24 12500
a contact +0020040 +0020087 1 30 12500
a contact +0020040 +0020100 28 25 12500
a contact +0020040 +0020100 25 28 12500
a contact +0020040 +0020100 23 30 12500
a contact +0020040 +0020100 30 23 12500
a contact +0020040 +0020100 1 23 12500
a contact +0020100 +0020160 28 25 12500
a contact +0020100 +0020160 25 28 12500
a contact +0020100 +0020160 23 30 12500
a contact +0020100 +0020160 30 23 12500
a contact +0020100 +0020155 1 23 12500
a contact +0020111 +0020160 9 30 12500
a contact +0020160 +0020220 9 30 12500
a contact +0020160 +0020220 16 31 12500
a contact +0020220 +0020280 9 30 12500
a contact +0020220 +0020280 16 31 12500
a contact +0020220 +0020280 13 23 12500
a contact +0020280 +0020340 9 30 12500
a contact +0020280 +0020340 13 23 12500
a contact +0020286 +0020340 38 26 12500
a contact +0020286 +0020340 26 38 12500
a contact +0020286 +0020340 24 36 12500
a contact +0020286 +0020340 36 24 12500
a contact +0020340 +0020400 13 23 12500
a contact +0020340 +0020400 38 26 12500
a contact +0020340 +0020400 26 38 12500
a contact +0020340 +0020400 24 36 12500
a contact +0020340 +0020400 36 24 12500
a contact +0020340 +0020400 4 23 12500
a contact +0020400 +0020458 13 23 12500
a contact +0020400 +0020460 38 26 12500
a contact +0020400 +0020460 26 38 12500
a contact +0020400 +0020460 24 36 12500
a contact +0020400 +0020460 36 24 12500
a contact +0020400 +0020460 4 23 12500
a contact +0020400 +0020460 11 30 12500
a contact +0020414 +0020460 6 29 12500
a contact +0020460 +0020520 38 26 12500
a contact +0020460 +0020520 26 38 12500
a contact +0020460 +0020520 24 36 12500
a contact +0020460 +0020520 36 24 12500
a contact +0020460 +0020520 4 23 12500
a contact +0020460 +0020520 11 30 12500
a contact +0020460 +0020520 6 29 12500
a contact +0020460 +0020520 5 28 12500
a contact +0020520 +0020576 4 23 12500
a contact +0020520 +0020580 11 30 12500
a contact +0020520 +0020580 6 29 12500
a contact +0020520 +0020580 5 28 12500
a contact +0020580 +0020614 11 30 12500
a contact +0020580 +0020635 6 29 12500
a contact +0020580 +0020640 5 28 12500
a contact +0020640 +0020686 5 28 12500
a contact +0020640 +0020700 35 32 12500
a contact +0020640 +0020700 32 35 12500
a contact +0020640 +0020700 37 34 12500
a contact +0020640 +0020700 34 37 12500
a contact +0020645 +0020700 17 30 12500
a contact +0020700 +0020760 35 32 12500
a contact +0020700 +0020760 32 35 12500
a contact +0020700 +0020760 37 34 12500
a contact +0020700 +0020760 34 37 12500
a contact +0020700 +0020760 17 30 12500
a contact +0020760 +0020820 35 32 12500
a contact +0020760 +0020820 32 35 12500
a contact +0020760 +0020820 37 34 12500
a contact +0020760 +0020820 34 37 12500
a contact +0020760 +0020820 17 30 12500
a contact +0020760 +0020820 16 25 12500
a contact +0020768 +0020820 10 38 12500
a contact +0020771 +0020820 19 29 12500
a contact +0020820 +0020878 35 32 12500
a contact +0020820 +0020878 32 35 12500
a contact +0020820 +0020878 37 34 12500
a contact +0020820 +0020878 34 37 12500
a contact +0020820 +0020880 17 30 12500
a contact +0020820 +0020880 16 25 12500
a contact +0020820 +0020880 10 38 12500
a contact +0020820 +0020880 19 29 12500
a contact +0020880 +0020940 16 25 12500
a contact +0020880 +0020940 10 38 12500
a contact +0020880 +0020940 19 29 12500
a contact +0020940 +0020994 16 25 12500
a contact +0020940 +0021000 19 29 12500
a contact +0020940 +0021000 22 38 12500
a contact +0020956 +0021000 14 38 12500
a contact +0021000 +0021060 22 38 12500
a contact +0021000 +0021060 14 38 12500
a contact +0021000 +0021060 31 28 12500
a contact +0021000 +0021060 28 31 12500
a contact +0021000 +0021060 30 33 12500
a contact +0021000 +0021060 33 30 12500
a contact +0021060 +0021120 22 38 12500
a contact +0021060 +0021120 14 38 12500
a contact +0021060 +0021120 31 28 12500
a contact +0021060 +0021120 28 31 12500
a contact +0021060 +0021120 30 33 12500
a contact +0021060 +0021120 33 30 12500
a contact +0021120 +0021174 22 38 12500
a contact +0021120 +0021180 14 38 12500
a contact +0021120 +0021180 31 28 12500
a contact +0021120 +0021180 28 31 12500
a contact +0021120 +0021180 30 33 12500
a contact +0021120 +0021180 33 30 12500
a contact +0021124 +0021180 8 29 12500
a contact +0021180 +0021233 31 28 12500
a contact +0021180 +0021233 28 31 12500
a contact +0021180 +0021233 30 33 12500
a contact +0021180 +0021233 33 30 12500
a contact +0021180 +0021240 8 29 12500
a contact +0021180 +0021240 6 38 12500
a contact +0021240 +0021300 8 29 12500
a contact +0021240 +0021300 6 38 12500
a contact +0021300 +0021341 8 29 12500
a contact +0021300 +0021360 6 38 12500
a contact +0021322 +0021360 3 23 12500
a contact +0021360 +0021403 6 38 12500
a contact +0021360 +0021420 3 23 12500
a contact +0021360 +0021420 24 27 12500
a contact +0021360 +0021420 27 24 12500
a contact +0021360 +0021420 26 29 12500
a contact +0021360 +0021420 29 26 12500
a contact +0021420 +0021480 3 23 12500
a contact +0021420 +0021480 24 27 12500
a contact +0021420 +0021480 27 24 12500
a contact +0021420 +0021480 26 29 12500
a contact +0021420 +0021480 29 26 12500
a contact +0021480 +0021540 3 23 12500
a contact +0021480 +0021540 24 27 12500
a contact +0021480 +0021540 27 24 12500
a contact +0021480 +0021540 26 29 12500
a contact +0021480 +0021540 29 26 12500
a contact +0021480 +0021540 1 26 12500
a contact +0021540 +0021587 24 27 12500
a contact +0021540 +0021587 27 24 12500
a contact +0021540 +0021587 26 29 12500
a contact +0021540 +0021587 29 26 12500
a contact +0021540 +0021600 1 26 12500
