GROUND STATIONS
-----------------------
node  [1] GS_AntarcticaTroll  eid = 1
node  [2] GS_Awarua  eid = 2
node  [3] GS_Cordoba  eid = 3
node  [4] GS_Inuvik  eid = 4
node  [5] GS_LosAngeles  eid = 5
node  [6] GS_Nuuk  eid = 6
node  [7] GS_PuertoLlano  eid = 7
node  [8] GS_PuntaArenas  eid = 8
node  [9] GS_Svalbard  eid = 9
node  [10] GS_Tokio  eid = 10

GROUND NODES
-----------------------
node  [11] GN_N00  eid = 11
node  [12] GN_N01  eid = 12
node  [13] GN_N02  eid = 13
node  [14] GN_N03  eid = 14
node  [15] GN_N04  eid = 15
node  [16] GN_N05  eid = 16
node  [17] GN_N06  eid = 17
node  [18] GN_N07  eid = 18
node  [19] GN_N08  eid = 19
node  [20] GN_N09  eid = 20
node  [21] GN_N10  eid = 21
node  [22] GN_N11  eid = 22
node  [23] GN_N12  eid = 23
node  [24] GN_N13  eid = 24
node  [25] GN_N14  eid = 25
node  [26] GN_N15  eid = 26
node  [27] GN_N16  eid = 27
node  [28] GN_N17  eid = 28
node  [29] GN_N18  eid = 29
node  [30] GN_N19  eid = 30
node  [31] GN_N20  eid = 31
node  [32] GN_N21  eid = 32
node  [33] GN_N22  eid = 33
node  [34] GN_N23  eid = 34
node  [35] GN_N24  eid = 35
node  [36] GN_N25  eid = 36
node  [37] GN_N26  eid = 37
node  [38] GN_N27  eid = 38
node  [39] GN_N28  eid = 39
node  [40] GN_N29  eid = 40
node  [41] GN_N30  eid = 41
node  [42] GN_N31  eid = 42
node  [43] GN_N32  eid = 43
node  [44] GN_N33  eid = 44
node  [45] GN_N34  eid = 45
node  [46] GN_N35  eid = 46
node  [47] GN_N36  eid = 47
node  [48] GN_N37  eid = 48
node  [49] GN_N38  eid = 49
node  [50] GN_N39  eid = 50
node  [51] GN_N40  eid = 51
node  [52] GN_N41  eid = 52
node  [53] GN_N42  eid = 53
node  [54] GN_N43  eid = 54
node  [55] GN_N44  eid = 55
node  [56] GN_N45  eid = 56
node  [57] GN_N46  eid = 57
node  [58] GN_N47  eid = 58
node  [59] GN_N48  eid = 59
node  [60] GN_N49  eid = 60
node  [61] GN_N50  eid = 61
node  [62] GN_N51  eid = 62
node  [63] GN_N52  eid = 63
node  [64] GN_N53  eid = 64
node  [65] GN_N54  eid = 65
node  [66] GN_N55  eid = 66
node  [67] GN_N56  eid = 67
node  [68] GN_N57  eid = 68
node  [69] GN_N58  eid = 69
node  [70] GN_N59  eid = 70
node  [71] GN_N60  eid = 71
node  [72] GN_N61  eid = 72
node  [73] GN_N62  eid = 73
node  [74] GN_N63  eid = 74
node  [75] GN_N64  eid = 75
node  [76] GN_N65  eid = 76
node  [77] GN_N66  eid = 77
node  [78] GN_N67  eid = 78
node  [79] GN_N68  eid = 79
node  [80] GN_N69  eid = 80
node  [81] GN_N70  eid = 81
node  [82] GN_N71  eid = 82
node  [83] GN_N72  eid = 83
node  [84] GN_N73  eid = 84
node  [85] GN_N74  eid = 85
node  [86] GN_N75  eid = 86
node  [87] GN_N76  eid = 87
node  [88] GN_N77  eid = 88
node  [89] GN_N78  eid = 89
node  [90] GN_N79  eid = 90
node  [91] GN_N80  eid = 91
node  [92] GN_N81  eid = 92
node  [93] GN_N82  eid = 93
node  [94] GN_N83  eid = 94
node  [95] GN_N84  eid = 95
node  [96] GN_N85  eid = 96
node  [97] GN_N86  eid = 97
node  [98] GN_N87  eid = 98
node  [99] GN_N88  eid = 99
node  [100] GN_N89  eid = 100
node  [101] GN_N90  eid = 101
node  [102] GN_N91  eid = 102
node  [103] GN_N92  eid = 103
node  [104] GN_N93  eid = 104
node  [105] GN_N94  eid = 105
node  [106] GN_N95  eid = 106
node  [107] GN_N96  eid = 107
node  [108] GN_N97  eid = 108
node  [109] GN_N98  eid = 109
node  [110] GN_N99  eid = 110

LEO SATELLITES
-----------------------
node  [111] LEO00  eid = 111
node  [112] LEO01  eid = 112
node  [113] LEO02  eid = 113
node  [114] LEO03  eid = 114
node  [115] LEO10  eid = 115
node  [116] LEO11  eid = 116
node  [117] LEO12  eid = 117
node  [118] LEO13  eid = 118
node  [119] LEO20  eid = 119
node  [120] LEO21  eid = 120
node  [121] LEO22  eid = 121
node  [122] LEO23  eid = 122
